<?xml version="1.0" encoding="utf-8"?>
<!-- Generator: Adobe Illustrator 14.0.0, SVG Export Plug-In . SVG Version: 6.00 Build 43363)  -->
<!DOCTYPE svg PUBLIC "-//W3C//DTD SVG 1.1//EN" "http://www.w3.org/Graphics/SVG/1.1/DTD/svg11.dtd">
<svg version="1.1" id="Layer_1" xmlns="http://www.w3.org/2000/svg" xmlns:xlink="http://www.w3.org/1999/xlink" x="0px" y="0px"
	 width="80" height="80" viewBox="0 0 230 230" enable-background="new 0 0 230 230" xml:space="preserve">
<g>
	<path fill="#FFFFFF" d="M211.903,109.889l-5.102-2.279c0.129-0.985,0.21-2.206,0.141-3.594c-0.231-4.646-2.061-9.017-5.287-12.639
		l-5.253-5.895l0.23,7.767c-0.012,0.167-0.104,1.144-0.688,2.639c-0.477,1.222-1.368,2.999-3.008,5.062l-1.148-0.582l-2.848-7.397
		l11.81-24.762l0.905,4.313l3.779-6.145c0.098-0.158,0.972-1.616,1.708-4.084c0.881-2.951,1.211-6.184,0.965-9.401l2.577-5.255
		l0.342-0.696l-0.055-0.773c-0.015-0.203-1.438-20.307-1.606-23.688c-0.083-1.656-1.581-4.236-3.643-6.274
		c-1.983-1.96-5.363-4.296-10.202-4.296c-1.795,0-3.517,0.293-5.118,0.873c-1.193,0.431-2.077,0.944-2.471,1.253
		c-0.382,0.299-4.993,3.87-11.376,8.812c-18.674,14.46-37.021,28.669-41.22,31.953c-0.101,0-0.206-0.001-0.318-0.001
		c-1.75,0-5.391,0.109-10.108,0.841c-5.491,0.852-10.842,2.285-15.903,4.26c-6.604,2.578-12.639,6.058-17.938,10.346
		c-6.264,5.069-11.55,11.311-15.717,18.559l-57.893,46.52l-2.219,1.783l1.761,2.236c0.207,0.263,0.486,0.646,0.811,1.09
		c1.784,2.444,5.104,6.993,10.359,10.923c6.496,4.858,13.983,7.321,22.254,7.321c2.272,0,4.632-0.188,7.014-0.562l0.043-0.007
		l0.043-0.009l11.189-2.102c0.395,1.544,0.976,3.684,1.764,6.268c2.345,7.689,6.717,19.041,14.224,29.461
		c4.164,5.779,8.89,10.708,14.045,14.647c6.032,4.609,12.753,7.941,19.976,9.903l6.683,1.815l-3.433-6.015
		c-0.039-0.07-4.086-7.236-6.852-16.896c-1.887-6.589-3.46-15.412-1.983-23.895c1.034,2.532,2.341,5.421,3.925,8.346
		c2.7,4.985,5.652,9.045,8.776,12.064c4.134,3.996,8.598,6.209,13.268,6.577l7.104,0.561l-4.708-5.313
		c-0.131-0.156-3.491-4.188-5.461-11.146c-2.245-7.929-1.894-16.328,1.039-25.032c0.852,1.083,1.868,2.263,3.046,3.443
		c2.404,2.408,4.997,4.337,7.705,5.731c3.464,1.783,7.112,2.691,10.845,2.698l5.951,0.013l-3.689-4.67
		c-0.979-1.239-1.805-2.875-2.74-4.949c-3.211-7.11-4.049-15.396-2.353-22.595l30.786,1.178l0.638,0.024l0.587-0.247l14.836-6.238
		l0.919-0.387l0.482-0.874l9.152-16.569l1.513-2.738L211.903,109.889z"/>
	<g>
		<path d="M19.26,137.564c2.928,3.719,13.508,21.505,37.734,17.71c13.876-2.606,13.876-2.606,13.876-2.606s0.728,3.416,2.357,8.759
			c4.534,14.862,16.869,44.097,46.249,52.076c0,0-16.713-29.287-6.516-51.348c0,0,8.893,31.874,26.374,33.254
			c0,0-14.95-17.135-2.933-44.218c0,0,7.935,15.123,22.281,15.151c-1.193-1.51-2.137-3.403-3.105-5.549
			c-3.207-7.104-4.923-17.153-1.897-26.737l33.063,1.266l14.835-6.239l9.152-16.569l-7.207-3.22c0,0,2.799-8.356-4.015-16.004
			c0,0-0.029,4.974-5.865,11.241l-4.14-2.099l-3.69-9.583l15.448-32.392c0,0,1.366,2.702,1.726,4.413c0,0,3.009-4.893,2.185-12.521
			l2.933-5.98c0,0-1.438-20.297-1.61-23.747c-0.06-1.209-3.728-7.839-10.973-7.839c-3.477,0-5.627,1.365-5.816,1.514
			c-1.323,1.035-51.827,40.116-53.403,41.4c-3.522-0.172-39.862-0.402-58.722,33.005L19.26,137.564z"/>
	</g>
	<path fill="#EFE1C6" d="M50.133,147.531c3.105-0.69-3.22-2.875-4.36-8.778c1.715,1.342,8.347,3.833,9.842,2.606
		c1.121-1.121-2.415-4.888-1.035-13.34c1.432-8.772,6.382-10.178,3.91-11.615c-2.76-0.46-28.405,20.7-28.405,20.7l4.025,6.67
		C34.109,143.774,47.603,148.796,50.133,147.531z"/>
	<polygon fill="#8E0028" points="191.502,128.45 199.71,125.01 197.323,119.452 191.502,128.45 	"/>
	<path fill="#8E0028" d="M130.135,155.543c-0.191,1.265,1.495,1.955,2.108,0.498s3.986-11.116,5.29-11.231
		c0.498-0.044,1.108,2.756,2.836,5.597c2.795,4.592,8.089,10.12,11.041,10.12c1.308,0,1.523-0.178,1.523-0.178l-3.206-4.743
		l-9.358-25.977l-5.75,8.625L130.135,155.543z"/>
	<path fill="#8E0028" d="M117.638,137.564c0,0,12.717,47.461,11.894,46.493c-13.444-15.814-14.04-33.345-14.04-33.345
		s-8.679,10.3-8.929,27.446l-3.089-0.23l6.422-25.989L117.638,137.564z"/>
	<path fill="#EFE1C6" d="M200.601,110.108c0,0,1.955-6.785-0.229-11.644c-1.208,4.198-3.68,6.9-5.765,8.769l-7.432-3.608
		l15.064,9.751l-9.085,2.146l-8.318-2.99c0,0,1.63-8.817-0.508-11.869c-0.118,0.676-0.628,1.674-0.905,2.343
		c-1.609,3.882-5.089,7.058-5.089,7.058l-8.026-2.899l-6.593-17.288l24.111-38.947c0,0,2.664,2.683,3.986,5.941
		c1.61-5.021-0.728-11.308-0.728-11.308l2.875-4.639l6.995-5.079l1.284,6.383l-11.5,31.893l9.124-19.665
		c0,0,0.445,0.403,1.073,1.304c0.655,0.941,1.504,2.408,1.955,3.603c1.073-2.722-0.422-10.043-0.422-10.043l2.645-4.869
		l-3.22-11.883l-12.219,8.438l-36.023,41.098c0,0-8.166,3.161-13.829,7.446c-1.21,0.916-2.25,1.94-3.134,2.933
		c0,0,9.507,1.802,10.351,8.165c0,0-3.075,1.801-7.629,5.232c-16.577,12.494-53.422,45.472-38.908,81.631
		c2.643,6.585,7.028,13.173,13.513,19.876c0,0-18.304-30.992,3.699-66.173c0.008,0.817-0.069,33.134,14.433,45.722
		c-10.369-24.495,7.656-53.676,7.656-53.676c-3.286,15.055,13.13,27.087,13.13,27.087c-7.695-16.229-1.121-31.236-1.121-31.236
		l34.909,1.39l4.78-2.052l6.004-5.912l2.204,2.472l6.756-12.199L200.601,110.108z M158.578,89.456l10.963-13.493l-7.867,13.417
		l6.487,17.71L158.578,89.456z"/>
	<path fill="#8E0028" d="M203.821,24.75c-1.064,1.322-2.655,6.842-2.655,6.842s-0.162-4.571-2.318-7.446
		c-2.026-2.7-4.543-0.345-6.297-2.846c-0.803-1.144-0.776-2.817-0.776-2.817l-4.888,3.68c0,0-1.322,5.29-1.034,11.787
		c0,0-2.933-2.3-4.601-6.842c0,0-1.149,2.645-1.207,12.42c0,0-3.163-2.875-5.003-7.533c0,0-1.438,6.095-1.265,13.513
		c0,0-2.76-2.07-5.578-8.28c0,0-1.38,7.245-1.265,14.893c0,0-4.485-4.082-6.21-9.603c0,0-21.477,16.445-22.972,17.595
		c-1.494,1.15-10.781,11.27-13.139,22.167c0,0-0.259-5.376,0.499-10.494c0,0-9.147,6.507-14.284,12.104c0,0-0.129-6.891,3.694-12.65
		c0,0-1.358,0.874-3.062,2.214c-1.074,0.845-2.115,1.786-3.58,3.09c-3.68,3.277-8.203,7.543-11.011,10.422
		c0,0,7.676-14.49,19.367-22.751c0,0-30.034,6.689-40.556,39.742c-0.288-0.316,0.518-7.619,0.518-7.619l-51.405,40.806
		c11.73,16.177,31.05,13.953,33.197,13.57c6.388-1.141,26.287-4.265,26.287-4.265s-3.249-8.223-2.559-13.656
		c0,0,2.185,10.608,9.698,17.192l-16.407,2.262c0,0,0.871,3.348,2.338,8.289c3.704,12.478,13.176,35.967,36.666,46.854
		c0,0-1.983-2.058-4.84-5.468c-8.082-9.647-21.896-31.672-7.791-60.562c-11.27,2.684-12.957-4.983-12.957-4.983
		c15.027,10.503,47.859-33.369,39.838-43.776c0,0,13.714-11.126,23.432-12.506l37.979-39.086l11.49-6.406l3.948,9.852L203.821,24.75
		z M56.419,146.765c-1.36,0.266-3.441,0.387-4.216,0.383c-4.856-0.024-16.072-1.685-20.278-9.046l40.097-32.162
		c-27.37,26.986,2.491,35.765,6.287,37.03C78.308,142.97,60.847,145.902,56.419,146.765z"/>
	<polygon fill="#8E0028" points="179.01,91.104 184.069,83.687 181.31,91.162 184.012,98.119 	"/>
	<path fill="#EFE1C6" d="M118.189,68.306c0,0,3.876-0.949,9.319-0.69c0.369-1.093-1.385-1.323-2.765-1.323
		c2.199-1.581,5.678-2.674,5.678-2.674l1.897-2.242C126.627,61.837,118.189,68.306,118.189,68.306z"/>
</g>
</svg>
