<?xml version="1.0" encoding="utf-8"?>
<!-- Generator: Adobe Illustrator 17.0.0, SVG Export Plug-In . SVG Version: 6.00 Build 0)  -->
<!DOCTYPE svg PUBLIC "-//W3C//DTD SVG 1.1//EN" "http://www.w3.org/Graphics/SVG/1.1/DTD/svg11.dtd">
<svg version="1.1"
	 id="svg3166" inkscape:output_extension="org.inkscape.output.svg.inkscape" sodipodi:version="0.32" inkscape:version="0.46" sodipodi:docname="ChicagoBlackhawksLogo.svg" xmlns:dc="http://purl.org/dc/elements/1.1/" xmlns:svg="http://www.w3.org/2000/svg" xmlns:cc="http://creativecommons.org/ns#" xmlns:rdf="http://www.w3.org/1999/02/22-rdf-syntax-ns#" xmlns:sodipodi="http://sodipodi.sourceforge.net/DTD/sodipodi-0.dtd" xmlns:inkscape="http://www.inkscape.org/namespaces/inkscape"
	 xmlns="http://www.w3.org/2000/svg" xmlns:xlink="http://www.w3.org/1999/xlink" x="0px" y="0px" width="156.944px"
	 height="136.402px" viewBox="0 0 156.944 136.402" enable-background="new 0 0 156.944 136.402" xml:space="preserve">
<defs>
	
	
		<inkscape:perspective  id="perspective3174" inkscape:persp3d-origin="320 : 160 : 1" inkscape:vp_z="640 : 240 : 1" sodipodi:type="inkscape:persp3d" inkscape:vp_y="0 : 1000 : 0" inkscape:vp_x="0 : 240 : 1">
		</inkscape:perspective>
	
		<inkscape:perspective  id="perspective2450" inkscape:persp3d-origin="372.04724 : 350.78739 : 1" inkscape:vp_z="744.09448 : 526.18109 : 1" sodipodi:type="inkscape:persp3d" inkscape:vp_y="0 : 1000 : 0" inkscape:vp_x="0 : 526.18109 : 1">
		</inkscape:perspective>
</defs>
<sodipodi:namedview  id="base" inkscape:document-units="px" inkscape:current-layer="layer1" inkscape:window-width="1530" inkscape:window-y="-8" inkscape:window-height="1000" inkscape:pageshadow="2" inkscape:pageopacity="0.0" inkscape:window-x="-8" showgrid="false" inkscape:cy="245.23328" bordercolor="#666666" inkscape:zoom="0.77472527" borderopacity="1.0" pagecolor="#ffffff" inkscape:cx="320">
	</sodipodi:namedview>
<g id="layer1" inkscape:groupmode="layer" inkscape:label="Layer 1">
	
		<g id="g2452" transform="matrix(1.0005508,0,0,-1.0403097,3.4871398,664.20428)" inkscape:label="2008-09%20Washington%20Capitals%20Official%20Guide-116-BC">
		<g id="g3200" transform="matrix(3.9713672,0,0,3.9383213,-1710.9148,-2138.9472)">
			<g>
				<g>
					<g id="g3202">
						<g id="g3208" transform="translate(472.4966,659.60361)">
							<path id="path3210" fill="#FFFFFF" d="M-32.119,31.764c0.305,0.102,0.305,0.068,0.034,0.204
								c-0.272,0.136-1.319,0.47-1.319,0.47s-0.068-0.3-0.034-0.402c0.034-0.102,0.034-0.346,0-0.482
								C-33.438,31.554-32.424,31.662-32.119,31.764"/>
						</g>
						<g id="g3212" transform="translate(476.114,652.8625)">
							<path id="path3214" fill="#FFFFFF" d="M-34.839,36.832c-0.404-0.248-0.789-0.318-1.505-0.36
								c0.065-0.138,0.23-0.257,0.477-0.24c-0.249-0.223-0.369-0.397-0.396-0.528c0.573,0.261,0.99,0.387,1.764,0.346
								c1.255-0.068,1.279,0.488,0.974,0.963C-33.831,37.487-34.511,37.033-34.839,36.832"/>
						</g>
						<g id="g3216" transform="translate(518.44099,656.093)">
							<path id="path3218" fill="#FFFFFF" d="M-66.658,34.404l-1.123-0.52c-0.079-0.124-0.156-0.249-0.233-0.375l1.226,0.58
								c-0.256-0.631-0.503-1.296-0.722-1.92c-0.393-0.261-1.248-0.573-1.566-0.686c-0.036-0.084-0.07-0.169-0.104-0.253
								c0.332,0.108,1.183,0.398,1.572,0.655c-0.353-1.023-0.618-1.891-0.702-2.225c-0.013-0.055,0.02-0.11,0.074-0.123
								c0.055-0.014,0.109,0.019,0.123,0.074c0.08,0.322,0.331,1.106,0.655,2.032c0.156-0.427,0.487-0.963,0.8-1.295
								c0.065,0.062,0.112,0.104,0.145,0.13c0.001,0.006,0.002,0.012,0.002,0.017c-0.333,0.353-0.671,1.049-0.814,1.529
								c0.2,0.563,0.421,1.161,0.643,1.728c0.123-0.3,0.466-0.845,0.608-1.067c0.026,0.109,0.052,0.221,0.079,0.334
								c-0.144,0.208-0.491,0.73-0.568,1.032c0.366,0.916,0.724,1.717,0.985,2.108c0.079,0.118,0.195,0.43,0.1,0.471
								C-65.835,36.214-66.253,35.37-66.658,34.404"/>
						</g>
						<g id="g3220" transform="translate(568.79739,630.5822)">
							<path id="path3222" fill="#FFFFFF" d="M-104.515,53.581c-0.057,0.013-0.113,0.027-0.173,0.041
								c-0.524,0.113-1.137,0.246-2.008,1.344l0.458,1.374c0.333-0.564,0.578-0.995,0.672-1.196c0.024-0.05,0.084-0.073,0.135-0.049
								c0.05,0.024,0.073,0.084,0.049,0.136c-0.098,0.212-0.355,0.663-0.701,1.248l1.289-0.234
								C-104.546,55.39-104.434,54.5-104.515,53.581 M-108.415,57.846l0.478,1.294c0.564-0.916,1.124-1.834,1.561-2.569l-0.47-1.41
								C-107.295,55.763-107.81,56.62-108.415,57.846 M-109.683,60.671l0.182,0.988c0.416-0.665,0.92-1.475,1.428-2.299
								l-0.467-1.261C-108.889,58.827-109.269,59.676-109.683,60.671 M-111.111,64.341c-0.012,0.06,0.017,0.107,0.088,0.047
								c0.179-0.17,0.382-0.359,0.612-0.572c0.604-0.558,1.349-1.245,2.104-2.042l-1.215,0.297
								c-0.435,0.694-0.739,1.173-0.788,1.247c-0.031,0.047-0.094,0.06-0.141,0.028c-0.046-0.031-0.06-0.094-0.028-0.141
								c0.079-0.12,0.39-0.609,0.818-1.292l-0.165-0.896C-110.223,61.989-110.651,63.09-111.111,64.341 M-106.047,58.938
								l-1.868,0.551c-0.52,0.841-1.033,1.666-1.453,2.335l1.314-0.321C-107.344,60.736-106.64,59.874-106.047,58.938
								 M-105.891,58.684c0.424-0.703,0.782-1.446,1.03-2.223l-1.36,0.247c-0.434,0.728-0.982,1.625-1.534,2.521l1.844-0.544
								C-105.903,58.683-105.896,58.684-105.891,58.684 M-110.273,63.967c-0.439,0.405-0.794,0.732-1.031,0.988
								c-0.047-0.081-0.103-0.156-0.168-0.223c3.893-10.696,5.472-11.037,6.742-11.309c0.098-0.021,0.19-0.041,0.281-0.065
								l0.115-0.031l0.012,0.119C-103.839,58.027-108.025,61.891-110.273,63.967"/>
						</g>
						<g id="g3224" transform="translate(461.58971,623.103)">
							<path id="path3226" fill="#FFFFFF" d="M-23.92,59.204c-0.054,0.023-0.127,0.009-0.108-0.069c0,0,0.117-0.555,0.117-0.794
								c0-0.104-0.009-0.196-0.025-0.276c0.442-1.452,1.831-0.65,0.821,0.487C-23.452,58.699-23.718,59.116-23.92,59.204"/>
						</g>
						<g id="g3228" transform="translate(545.46609,627.2133)">
							<path id="path3230" fill="#FEE011" d="M-86.975,56.114c-0.124,0.272-0.285,1.005-0.466,1.994l-0.698-0.865
								c0.208-0.647,0.457-1.272,0.759-1.858L-86.975,56.114z"/>
						</g>
						<g id="g3232" transform="translate(542.92059,644.0497)">
							<path id="path3234" fill="#FEE011" d="M-85.061,43.457c0.112-0.691,0.222-1.346,0.325-1.925l1.398-0.757
								c-0.019,0.53-0.076,1.126-0.186,1.796L-85.061,43.457z"/>
						</g>
						<g id="g3236" transform="translate(537.5025,648.66991)">
							<path id="path3238" fill="#FEE011" d="M-80.989,39.984c0.055-0.587,0.132-1.186,0.234-1.783l0.867,0.867
								c-0.088,0.548-0.178,1.117-0.267,1.692L-80.989,39.984z"/>
						</g>
						<g id="g3240" transform="translate(539.81821,674.7614)">
							<path id="path3242" fill="#FEE011" d="M-82.729,20.369c-0.095-0.055-0.198-0.096-0.308-0.121
								c0.357-0.77,0.675-1.499,0.958-2.189C-82.298,18.775-82.516,19.543-82.729,20.369"/>
						</g>
						<g id="g3244" transform="translate(539.0657,668.399)">
							<path id="path3246" fill="#FEE011" d="M-82.164,25.152c0.156-0.935,0.33-2.056,0.51-3.211
								c0.036-0.23,0.072-0.463,0.108-0.697l1.371-0.768c-0.377,1.36-0.933,2.943-1.734,4.79
								C-82.015,25.516-82.217,25.401-82.164,25.152"/>
						</g>
						<g id="g3248" transform="translate(541.7191,651.62711)">
							<path id="path3250" fill="#FEE011" d="M-84.158,37.761c0.085-0.545,0.171-1.091,0.257-1.622l1.535-0.885
								c-0.094,0.528-0.221,1.1-0.385,1.719L-84.158,37.761z"/>
						</g>
						<g id="g3252" transform="translate(540.70911,652.7756)">
							<path id="path3254" fill="#FEE011" d="M-83.399,36.898c-0.033,0.212-0.066,0.424-0.099,0.636
								c-0.18,1.155-0.354,2.275-0.51,3.208c-0.036,0.213-0.262,0.227-0.28-0.076c-0.052-1.212-0.074-2.82,0.07-4.531
								L-83.399,36.898z"/>
						</g>
						<g id="g3256" transform="translate(543.3951,636.31149)">
							<path id="path3258" fill="#FEE011" d="M-85.419,49.275c-0.103,0.573-0.21,1.219-0.321,1.905l-0.864-0.865
								c0.12-0.654,0.271-1.304,0.463-1.936L-85.419,49.275z"/>
						</g>
						<g id="g3260" transform="translate(553.3694,637.9032)">
							<path id="path3262" fill="#FEE011" d="M-92.916,48.077c-0.383,0.569-0.835,1.424-1.154,2.155
								c1.014-4.201,0.223-6.087-0.147-6.971l-0.077-0.185c0,0-0.065-0.158-0.065-0.16l-0.108,0.133
								c-3.239,4.002-2.762,11.439-2.606,13.882c0.003,0.06,0.007,0.116,0.011,0.17c-0.025,0.005-0.049,0.012-0.074,0.019
								l-0.205-0.06c-0.102-0.509-0.102-5.565,0.034-7.093s0.51-3.495,0.543-4.309c0.068-0.17,0.907-1.509,1.221-2.104
								c0.305-0.577,0.746-1.289,0.849-1.969C-92.928,43.216-92.603,45.846-92.916,48.077"/>
						</g>
						<g id="g3264" transform="translate(549.8862,632.29559)">
							<path id="path3266" fill="#FEE011" d="M-90.298,52.294l-1.357,0.736c0.183-0.997,0.343-1.724,0.457-1.935l0.746-0.657
								C-90.353,50.933-90.287,51.544-90.298,52.294"/>
						</g>
						<g id="g3268" transform="translate(547.3669,618.8177)">
							<path id="path3270" fill="#FEE011" d="M-88.404,62.425c0.122,0.292,0.29,0.696,0.422,1.261l-0.751,0.661l-0.434-0.783
								c0.224-0.41,0.474-0.8,0.754-1.163L-88.404,62.425z"/>
						</g>
						<g id="g3272" transform="translate(533.8441,618.66879)">
							<path id="path3274" fill="#FEE011" d="M-78.238,62.538c-0.434,0.201-0.894,0.487-1.182,0.776
								c-0.057,0.56-0.083,1.429-0.074,2.453c0.369-0.33,1.07-0.761,1.32-0.911C-78.131,63.982-78.163,63.212-78.238,62.538
								 M-78.458,61.235c-0.246-0.255-0.75,0.308-0.953,0.686l-0.068-0.204c-0.313-0.626-0.546-0.538-0.714-0.34
								c-0.096,0.4-0.175,0.808-0.241,1.225c0.206,0.112,0.689,0.38,0.902,0.547c0.274-0.291,1.071-0.731,1.268-0.837
								C-78.317,61.916-78.384,61.557-78.458,61.235 M-80.644,65.282l0.907,0.62c-0.004-1.018,0.03-1.904,0.103-2.526
								c-0.224-0.211-0.643-0.444-0.834-0.546C-80.582,63.617-80.639,64.435-80.644,65.282 M-80.483,68.02
								c0.175,0.121,0.639,0.447,0.837,0.67c-0.051-0.876-0.081-1.739-0.089-2.532c-0.207-0.184-0.666-0.502-0.91-0.669
								C-80.641,66.306-80.587,67.15-80.483,68.02 M-80.347,69.022c0.193,1.219,0.444,2.26,0.787,3.349
								c0.071,0.285,0.307,0.319,0.271,0.017c-0.15-1.046-0.263-2.22-0.338-3.387c-0.122-0.185-0.628-0.574-0.827-0.722
								C-80.421,68.525-80.386,68.772-80.347,69.022 M-78.767,72.295c0.059-1.417,0.165-3.031,0.262-4.193
								c-0.239,0.141-0.635,0.426-0.893,0.672c0.07,1.263,0.177,2.539,0.321,3.631C-79.005,72.761-78.803,72.651-78.767,72.295
								 M-78.359,66.643c0.084-0.546,0.137-1.061,0.169-1.547c-0.345,0.197-0.969,0.625-1.302,0.962
								c0.01,0.766,0.036,1.605,0.081,2.458c0.271-0.247,0.689-0.54,0.929-0.687C-78.434,67.271-78.39,66.845-78.359,66.643
								 M-78.561,75.727c-0.904-2.241-1.636-4.466-1.986-6.673c-0.616-3.882-0.29-7.297,0.967-10.156
								c0.002-0.056,0.103-0.149,0.203-0.181c0.118-0.037,0.141,0.068,0.218,0.18c0.185,0.262,1.775,2.714,1.001,7.777
								C-78.31,67.674-78.764,74.85-78.561,75.727"/>
						</g>
						<g id="g3276" transform="translate(510.9424,617.80479)">
							<path id="path3278" fill="#FEE011" d="M-61.022,63.187c-0.008,0.194,0.037,0.266,0.055,0.288
								c0.223,0.073,0.395-0.197,0.523-0.574c0.045-0.269,0.06-0.506,0.055-0.716C-60.703,62.441-61.004,62.786-61.022,63.187
								 M-57.685,77.583v-0.031c0.113,0.004,0.199,0.099,0.195,0.211c-0.004,0.113-0.099,0.2-0.211,0.196
								c-1.963,0.05-4.917-0.215-6.67-0.592c-0.087,0.858-0.358,1.376-0.667,1.964c-0.184,0.349-0.373,0.711-0.544,1.19
								c-0.21,0.588-0.205,1.012,0.013,1.191c0.27,0.221,0.865,0.121,1.251-0.111c0.067-0.041,0.142-0.088,0.222-0.138
								c0.736-0.468,1.968-1.253,3.3-0.221c0.374,0.29,0.678,0.401,0.902,0.33c0.414-0.129,0.645-0.866,0.869-1.578l0.014-0.044
								c0.145-0.461,0.414-0.793,0.798-0.984c0.517-0.257,1.227-0.093,1.567,0.101c0.098,0.055,0.132,0.149,0.077,0.247
								c-0.055,0.098-0.18,0.132-0.278,0.076c-0.218-0.124-0.754-0.304-1.185-0.09c-0.282,0.14-0.481,0.421-0.591,0.773
								l-0.013,0.044c-0.256,0.813-0.519,1.62-1.136,1.814c-0.365,0.114-0.781-0.016-1.273-0.398
								c-1.105-0.856-2.144-0.195-2.832,0.242c-0.082,0.052-0.159,0.101-0.231,0.144c-0.405,0.243-1.229,0.51-1.719,0.108
								c-0.372-0.305-0.42-0.858-0.139-1.642c0.181-0.506,0.386-0.898,0.568-1.243c0.507-0.965,0.908-1.727,0.442-4.424
								c-0.664-3.849-0.774-5.373,0.611-7.346c0.291-0.415,0.541-0.742,0.762-1.03c0.784-1.024,1.108-1.448,1.203-3.241
								c0.066-1.24,0.456-2.141,1.043-2.413c0.278-0.129,0.577-0.097,0.819,0.089c0.204,0.155,0.348,0.401,0.438,0.709
								c0.026-0.014,0.053-0.03,0.078-0.043c0.233-0.129,0.639,0.015,0.887,0.315c0.251,0.302,0.683,1.185-0.699,2.844
								c-0.333,0.4-0.7,0.77-1.055,1.129c-0.401,0.405-0.781,0.789-1.114,1.209c-0.628,0.794-1.411,1.782-1.178,4.403l0.137,1.585
								c0.094,1.119,0.1,1.186,0.197,1.573c0.13,0.518,0.312,0.769,0.4,0.781c0.041,0.007,0.154-0.055,0.313-0.326
								c0.322-0.549,0.625-0.796,0.9-0.733c0.327,0.074,0.401,0.523,0.429,0.853c0.098,1.186,0.286,1.245,0.294,1.247
								c0.001,0,0.108,0.003,0.357-0.333c0.321-0.434,0.53-0.697,0.789-0.647c0.275,0.052,0.356,0.357,0.573,1.173l0.05,0.187
								c0.029,0.108-0.036,0.22-0.144,0.25c-0.108,0.029-0.22-0.066-0.249-0.175l-0.05-0.188c-0.098-0.369-0.192-0.72-0.261-0.85
								c-0.107,0.091-0.3,0.353-0.381,0.461c-0.186,0.252-0.472,0.575-0.796,0.482c-0.331-0.094-0.501-0.559-0.588-1.605
								c-0.029-0.354-0.094-0.46-0.116-0.486c-0.06,0.019-0.237,0.165-0.456,0.538c-0.084,0.143-0.338,0.61-0.722,0.554
								c-0.399-0.057-0.621-0.622-0.737-1.086c-0.105-0.42-0.113-0.511-0.208-1.638l-0.137-1.584
								c-0.247-2.783,0.627-3.887,1.265-4.692c0.347-0.438,0.751-0.847,1.144-1.242c0.349-0.352,0.709-0.717,1.032-1.103
								c0.784-0.941,1.059-1.76,0.754-2.248c-0.151-0.24-0.382-0.302-0.439-0.29c-0.052,0.029-0.115,0.066-0.185,0.108
								c0.033,0.317,0.02,0.677-0.045,1.066c-0.077,0.46-0.534,0.946-0.991,0.899c-0.179-0.018-0.418-0.156-0.395-0.703
								c0.026-0.635,0.525-1.129,0.987-1.455c-0.07-0.312-0.194-0.516-0.324-0.616c-0.123-0.094-0.258-0.108-0.401-0.042
								c-0.33,0.152-0.739,0.784-0.808,2.065c-0.102,1.919-0.473,2.405-1.287,3.467c-0.218,0.285-0.466,0.608-0.752,1.017
								c-1.296,1.847-1.187,3.316-0.543,7.042c0.173,1,0.229,1.744,0.209,2.34C-62.586,77.402-59.92,77.649-57.685,77.583"/>
						</g>
						<g id="g3280" transform="translate(494.50639,616.0168)">
							<path id="path3282" fill="#E7A908" d="M-48.665,64.531c-0.483,0.132-0.706,0.86-0.496,1.625
								c0.209,0.765,0.77,1.278,1.254,1.146c0.483-0.132,0.706-0.86,0.496-1.625C-47.621,64.913-48.183,64.399-48.665,64.531
								 M-50.595,68.564c-2.41,0.712-0.878,3.69,0.237,3.393C-51.816,70.634-51.08,69.096-50.595,68.564 M-53.411,72.467
								c0.86,0.396,1.12-0.441,0.305-0.679c-2.323-0.678-2.511,0.509-1.969,1.019c-1.426,0.848,0.407,1.561,1.187,1.799
								c0.78,0.237,0.746-0.509,0.305-0.611s-0.611-0.204-0.985-0.305c-0.193-0.053-0.24-0.223-0.17-0.371
								c0.716,0.042,1.101,0.112,1.505,0.36c0.327,0.201,1.008,0.655,1.313,0.18c0.306-0.475,0.282-1.031-0.974-0.963
								c-0.774,0.041-1.191-0.084-1.763-0.346C-54.731,72.18-54.063,72.165-53.411,72.467 M-56.142,74.029
								c-0.261-0.049-0.08,0.562-0.107,0.723c-0.295-0.059-0.837,0.023-0.891,0.141c-0.066,0.146,0.27,0.229,0.938,0.259
								c-0.054,0.322-0.164,0.903,0.039,1.216c-0.507,0.176-1.078,0.288-0.621,0.629c0.391,0.291,0.303,0.471,0.303,0.471
								c-0.25,0.2-0.557,0.626,0.093,0.894c0.649,0.268,1.535,0.124,1.993-0.242c0.535-0.426,1.288-0.909,1.873-0.829
								c0.942,0.13,0.73-0.32,0.165-0.547c-0.66-0.265-1.641,0.228-1.861,0.363c-0.22,0.135-0.884,0.484-0.989,0.199
								c-0.105-0.285-0.293-0.49-0.058-0.645c0.491-0.324,1.287-0.799,1.737-1.017c0.328-0.16,0.297-0.389-0.308-0.535
								c-0.692-0.167-1.738-0.33-1.738-0.33C-55.65,74.398-55.873,74.079-56.142,74.029 M-53.492,80.562
								c0.543,0.373,0.848,0.611,0.848,0.611c0.373,0.237,0.354,0.111,0.611-0.068c0.3-0.209,0.844-0.727,1.031-0.914
								c0.339-0.339,0.046-0.601-0.209-0.261c-0.469,0.626-1.122,0.991-1.122,0.991l-0.314-0.209
								c0.509-0.441,1.662-1.415,2.114-2.141c0.131-0.209-0.131-0.366-0.314-0.131c-0.627,0.806-2.114,2.036-2.114,2.036
								l-0.314-0.209c0.373-0.373,0.914-0.757,1.123-1.096c0.201-0.327,0.049-0.599-0.242-0.224
								c-0.358,0.459-0.828,0.798-0.828,0.798C-53.56,80.019-54.035,80.188-53.492,80.562 M-55.909,65.598
								c-0.041,0.009-0.081,0.023-0.121,0.041c1.01-1.136-0.379-1.939-0.821-0.487c-0.15-0.769-0.933-0.5-0.827,0.032
								c0.06,0.3,0.079,0.852,0.079,1.126c0,0.108-0.156,0.347,0.059,0.421c0.225,0.078,0.362,0.098,0.509,0.205
								c0.215,0.137,0.317-0.07,0.391-0.117c0.286-0.183,0.607-0.29,0.939-0.411C-54.839,66.094-55.401,65.49-55.909,65.598
								 M-47.387,64.967c0.952,2.3-0.604,2.858-1.069,2.527c-2.443,3.818-1.513,6.778-1.324,8.163
								c0.712,5.192-1.634,5.895-2.448,6.505c-0.967-0.458-3.309-2.362-4.632-3.532s-0.916-1.639-0.814-2.3
								c0.102-0.662-0.305-1.283-0.56-1.639c-0.254-0.357-0.346-0.596-1.364-2.174c-1.019-1.578-0.061-1.97,0.499-1.97
								s1.616,0.194,2.564,0.274c0.314,0.026,0.64,0.33,0.386,0.699s-0.577,0.583-0.952,0.562c-0.332-0.02-0.453-0.431,0.035-0.544
								c0.42,0.089,0.477-0.478-0.257-0.252c-0.51,0.158-0.69,1.232,0.345,1.101c0.951-0.119,1.408-0.914,1.278-1.514
								c0.153-0.05,0.859-0.471,1.038-0.94c0.314-0.822-0.133-0.762-0.333-0.261c-0.469,1.182-2.021,0.742-2.985,0.661
								c-0.567-0.048-0.434-0.12-0.53-0.428c-0.254-0.814-0.412-1.614,0.148-1.767c0.453-0.123,1.506,0.086,1.914,0.189
								c0.407,0.102,0.356,0.407-0.051,0.356c-0.407-0.05-0.611,0.357,0,0.458s0.967-0.204,0.916-0.458
								c-0.05-0.254,0.102-0.458,0.255-0.509c0.152-0.05,0.275-0.41,0.305-0.611c0.102-0.662-0.458-0.559-0.407-0.102
								c0.022,0.203-0.305,0.509-0.611,0.357c-0.305-0.153-1.791-0.305-2.453-0.204c-0.458-0.458-0.18-0.92-0.027-1.124
								c0.152-0.204,0.226-0.91,0.027-1.35c-0.662-1.466,0.863-2.007,1.481-2.046c2.184-0.138,3.903,0.232,5.461,0.803
								c0.793,0.338,1.316,0.972,1.772,1.58c-0.144-0.635-0.474-1.217-1.009-1.612c-0.75-0.514-2.049-0.885-2.836-1.076
								c0,0,0.118-0.926,0.332-1.566c0.185-0.554,0.525-0.977,0.669-1.356c0.192-0.506,0.316-1.055,0.94-0.88
								c2.53,0.709,4.739,1.818,5.91,2.53C-45.876,61.668-47.082,64.305-47.387,64.967"/>
						</g>
						<g id="g3284" transform="translate(497.0006,625.1422)">
							<path id="path3286" fill="#E7A908" d="M-50.54,57.671c-0.307,0.084-0.604-0.217-0.737-0.703
								c-0.132-0.486-0.05-0.974,0.256-1.057c0.307-0.084,0.578,0.284,0.71,0.77C-50.179,57.167-50.234,57.587-50.54,57.671"/>
						</g>
						<g id="g3288" transform="translate(466.6418,668.4057)">
							<path id="path3290" fill="#E7A908" d="M-27.718,25.147c-0.322-0.054-0.704-0.172-0.772-0.266
								c-0.055-0.079,0.422-0.3,0.58-0.37c0.158-0.07,0.175,0.092,0.244,0.25C-27.597,24.919-27.396,25.201-27.718,25.147"/>
						</g>
						<g id="g3292" transform="translate(540.05659,688.5518)">
							<path id="path3294" fill="#F57215" d="M-82.909,10.002h-1.77l1.129-1.224h0.64L-82.909,10.002L-82.909,10.002z"/>
						</g>
						<g id="g3296" transform="translate(561.3011,642.6256)">
							<path id="path3298" fill="#F57215" d="M-98.88,44.528c-0.438,0.736-0.997,1.652-1.561,2.569l-0.478-1.294
								c0.604-1.225,1.12-2.082,1.57-2.685L-98.88,44.528z"/>
						</g>
						<g id="g3300" transform="translate(547.9776,659.1409)">
							<path id="path3302" fill="#F57215" d="M-88.863,32.112c0.414-0.995,0.794-1.844,1.144-2.572l0.466,1.261
								c-0.508,0.823-1.012,1.633-1.429,2.299L-88.863,32.112z"/>
						</g>
						<g id="g3304" transform="translate(563.17571,651.1433)">
							<path id="path3306" fill="#F57215" d="M-100.289,38.124l-1.844,0.544c0.552-0.896,1.1-1.792,1.534-2.521l1.36-0.247
								c-0.248,0.776-0.606,1.519-1.029,2.223C-100.275,38.123-100.282,38.122-100.289,38.124"/>
						</g>
						<g id="g3308" transform="translate(572.17841,638.2766)">
							<path id="path3310" fill="#F57215" d="M-107.057,47.797c-0.815,5.226-6.754,9.23-7.466,9.943l-0.021-0.031
								c-0.015-0.163-0.065-0.314-0.141-0.449c0.237-0.255,0.592-0.583,1.031-0.988c2.248-2.076,6.433-5.939,5.953-10.522
								l-0.013-0.12l-0.115,0.031c-0.091,0.025-0.184,0.045-0.281,0.065c-1.27,0.272-2.849,0.613-6.742,11.31
								c-0.07-0.071-0.149-0.133-0.236-0.183c0.213-0.827,0.43-1.595,0.65-2.311c0.513-1.254,0.909-2.38,1.21-3.391
								c2.772-6.62,5.612-6.301,6.275-6.274C-107.158,45.354-106.882,46.678-107.057,47.797"/>
						</g>
						<g id="g3312" transform="translate(545.04269,671.8156)">
							<path id="path3314" fill="#F57215" d="M-86.657,22.584c-0.23,0.213-0.434,0.401-0.612,0.572
								c-0.071,0.06-0.1,0.012-0.088-0.047c0.46-1.251,0.888-2.352,1.285-3.323l0.165,0.896c-0.429,0.684-0.739,1.173-0.818,1.292
								c-0.031,0.046-0.018,0.11,0.028,0.141c0.047,0.031,0.11,0.019,0.141-0.028c0.049-0.074,0.353-0.553,0.788-1.247l1.215-0.297
								C-85.308,21.338-86.053,22.026-86.657,22.584"/>
						</g>
						<g id="g3316" transform="translate(549.2486,663.7896)">
							<path id="path3318" fill="#F57215" d="M-89.819,28.617c0.419-0.669,0.933-1.494,1.452-2.335l1.868-0.551
								c-0.593,0.936-1.297,1.796-2.006,2.565L-89.819,28.617z"/>
						</g>
						<g id="g3320" transform="translate(568.10159,630.744)">
							<path id="path3322" fill="#F57215" d="M-103.992,53.46c0.06-0.012,0.116-0.027,0.173-0.041
								c0.08,0.918-0.032,1.809-0.279,2.661l-1.289,0.234c0.346-0.585,0.602-1.036,0.701-1.248c0.024-0.05,0.002-0.111-0.049-0.136
								c-0.051-0.024-0.112-0.002-0.136,0.05c-0.093,0.201-0.338,0.632-0.672,1.196L-106,54.804
								C-105.128,53.706-104.516,53.572-103.992,53.46"/>
						</g>
						<g id="g3324" transform="translate(528.79269,632.8503)">
							<path id="path3326" fill="#007F55" d="M-74.441,51.876c0.333-0.338,0.957-0.765,1.302-0.962
								c-0.031,0.487-0.085,1-0.169,1.547c-0.031,0.203-0.074,0.628-0.122,1.186c-0.24,0.146-0.658,0.439-0.929,0.687
								C-74.404,53.482-74.431,52.642-74.441,51.876"/>
						</g>
						<g id="g3328" transform="translate(528.7821,631.6763)">
							<path id="path3330" fill="#007F55" d="M-74.432,52.759c-0.007-1.024,0.017-1.892,0.074-2.453
								c0.288-0.289,0.748-0.575,1.182-0.777c0.075,0.674,0.108,1.445,0.063,2.318C-73.362,51.998-74.063,52.429-74.432,52.759"/>
						</g>
						<g id="g3332" transform="translate(530.134,604.00121)">
							<path id="path3334" fill="#007F55" d="M-75.449,73.564c-0.078-0.112-0.1-0.216-0.219-0.18
								c-0.099,0.031-0.199,0.125-0.202,0.181c-1.257,2.858-1.584,6.275-0.967,10.156c0.35,2.207,1.083,4.432,1.987,6.673
								c-0.203-0.876,0.251-8.054,0.404-9.053C-73.673,76.277-75.265,73.827-75.449,73.564 M-74.446,90.896
								c0.05,0.162,0.089,0.279,0.118,0.362c-0.079,0.07-0.147,0.151-0.204,0.241c-1.285-1.752-5.009-12.407-1.388-18.345
								c0.137-0.258,0.411-0.29,0.537-0.134c0.658,0.626,1.915,3.859,1.446,6.475C-74.434,82.267-74.718,90.013-74.446,90.896"/>
						</g>
						<g id="g3336" transform="translate(532.76891,641.0865)">
							<path id="path3338" fill="#007F55" d="M-77.43,45.685c-0.096,1.162-0.204,2.775-0.262,4.193
								c-0.036,0.356-0.238,0.466-0.309,0.11c-0.144-1.092-0.251-2.368-0.321-3.631C-78.064,46.112-77.669,45.826-77.43,45.685"/>
						</g>
						<g id="g3340" transform="translate(527.8054,632.22211)">
							<path id="path3342" fill="#007F55" d="M-73.699,52.349l-0.907-0.62c0.004-0.847,0.062-1.665,0.175-2.453
								c0.192,0.102,0.611,0.335,0.835,0.546C-73.669,50.445-73.703,51.331-73.699,52.349"/>
						</g>
						<g id="g3344" transform="translate(524.99541,618.92619)">
							<path id="path3346" fill="#007F55" d="M-71.586,62.344c0.065-0.417,0.146-0.826,0.241-1.225
								c0.168-0.198,0.4-0.285,0.713,0.34l0.068,0.204c0.204-0.378,0.707-0.94,0.953-0.686c0.074,0.323,0.141,0.681,0.194,1.077
								c-0.197,0.106-0.994,0.546-1.268,0.837C-70.897,62.724-71.38,62.455-71.586,62.344"/>
						</g>
						<g id="g3348" transform="translate(528.2495,644.7063)">
							<path id="path3350" fill="#007F55" d="M-74.032,42.963c0.075,1.167,0.188,2.341,0.338,3.387
								c0.036,0.302-0.2,0.267-0.271-0.017c-0.343-1.089-0.593-2.129-0.787-3.349c-0.04-0.25-0.075-0.497-0.107-0.743
								C-74.661,42.39-74.154,42.78-74.032,42.963"/>
						</g>
						<g id="g3352" transform="translate(528.1721,643.45261)">
							<path id="path3354" fill="#007F55" d="M-73.974,43.906c-0.199-0.223-0.661-0.549-0.837-0.67
								c-0.103-0.869-0.158-1.714-0.162-2.531c0.244,0.166,0.703,0.486,0.91,0.669C-74.056,42.167-74.025,43.03-73.974,43.906"/>
						</g>
						<g id="g3356" transform="translate(537.5912,676.4427)">
							<path id="path3358" fill="#007F55" d="M-81.055,19.105c-0.296,0-0.537,0.24-0.537,0.537c0,0.296,0.241,0.537,0.537,0.537
								c0.296,0,0.537-0.24,0.537-0.537S-80.759,19.105-81.055,19.105 M-81.055,20.481c-0.463,0-0.839-0.376-0.839-0.839
								s0.376-0.839,0.839-0.839c0.463,0,0.839,0.376,0.839,0.839C-80.216,20.105-80.592,20.481-81.055,20.481"/>
						</g>
						<g id="g3360" transform="translate(546.66479,685.4415)">
							<path id="path3362" fill="#007F55" d="M-87.876,12.341c-0.392-0.165-0.827-0.472-1.089-0.821l0.261-0.74l1.189,0.278
								L-87.876,12.341z"/>
						</g>
						<g id="g3364" transform="translate(520.8015,649.17599)">
							<path id="path3366" fill="#007F55" d="M-68.433,39.603c-0.221-0.957-0.375-1.758-0.438-2.19
								c-0.001-0.006-0.002-0.012-0.002-0.017c-0.033-0.026-0.08-0.068-0.145-0.13c-0.079-0.074-0.185-0.18-0.335-0.328
								c-0.412-0.408-0.962-0.951-1.326-1.215c-0.198,0.366-0.877,1.647-0.981,2.117c0.036,0.102,0.076,0.204,0.117,0.306
								c0.034,0.084,0.069,0.169,0.104,0.253c0.286,0.673,0.654,1.356,1.062,2.026c0.077,0.125,0.155,0.251,0.233,0.375
								c1.182,1.853,2.638,3.556,3.559,4.57c-0.707-1.417-1.344-3.642-1.77-5.433C-68.382,39.824-68.407,39.713-68.433,39.603
								 M-71.861,37.883l-0.009-0.026l0.005-0.027c0.103-0.553,1.024-2.232,1.062-2.304l0.053-0.096l0.092,0.06
								c0.374,0.242,0.995,0.856,1.448,1.305c0.213,0.21,0.432,0.428,0.479,0.456l0.042,0.026c0.005,0.002,0.012,0.051,0.012,0.051
								c0.18,1.325,1.499,7.258,2.789,9.013C-66.826,45.401-70.649,41.275-71.861,37.883"/>
						</g>
						<g id="g3368" transform="translate(497.9229,621.1568)">
							<path id="path3370" fill="#E32739" d="M-51.234,60.667c-0.132-0.486-0.403-0.854-0.71-0.77
								c-0.307,0.084-0.389,0.572-0.256,1.057c0.132,0.487,0.43,0.786,0.737,0.703C-51.156,61.572-51.101,61.153-51.234,60.667
								 M-51.325,62.162c-0.483,0.132-1.044-0.381-1.254-1.146c-0.209-0.765,0.013-1.493,0.496-1.625
								c0.483-0.132,1.044,0.381,1.254,1.146C-50.619,61.303-50.842,62.03-51.325,62.162"/>
						</g>
						<g id="g3372" transform="translate(475.3889,647.9832)">
							<path id="path3374" fill="#E32739" d="M-34.293,40.5c-0.651-0.3-1.321-0.287-1.244,0.083
								c0.027,0.131,0.147,0.306,0.396,0.528c-0.246-0.017-0.412,0.103-0.477,0.241c-0.069,0.148-0.022,0.318,0.171,0.371
								c0.373,0.102,0.543,0.204,0.985,0.305c0.441,0.102,0.475,0.848-0.305,0.611c-0.78-0.237-2.613-0.95-1.188-1.799
								c-0.543-0.509-0.354-1.695,1.969-1.018C-33.174,40.059-33.434,40.897-34.293,40.5"/>
						</g>
						<g id="g3376" transform="translate(517.9183,654.8282)">
							<path id="path3378" fill="#E32739" d="M-66.266,35.354l-1.227-0.58c-0.408-0.669-0.774-1.353-1.061-2.026
								c0.319,0.113,1.173,0.425,1.566,0.686C-66.769,34.058-66.522,34.724-66.266,35.354"/>
						</g>
						<g id="g3380" transform="translate(523.1981,665.0643)">
							<path id="path3382" fill="#E32739" d="M-70.235,27.659c0.095-0.04-0.022-0.353-0.1-0.471
								c-0.261-0.391-0.619-1.192-0.985-2.108c0.078-0.301,0.425-0.823,0.568-1.032c0.427,1.791,1.063,4.016,1.771,5.433
								c-0.921-1.013-2.376-2.717-3.557-4.569l1.123,0.52C-71.01,26.398-70.592,27.243-70.235,27.659"/>
						</g>
						<g id="g3384" transform="translate(519.8149,639.9991)">
							<path id="path3386" fill="#E32739" d="M-67.691,46.502c0,0-0.007-0.049-0.012-0.051l-0.042-0.026
								c-0.046-0.028-0.266-0.245-0.478-0.455c-0.453-0.448-1.074-1.063-1.448-1.305l-0.092-0.06l-0.053,0.096
								c-0.039,0.072-0.959,1.752-1.062,2.304l-0.005,0.027l0.009,0.026c1.211,3.393,5.035,7.519,5.972,8.456
								C-66.193,53.76-67.512,47.827-67.691,46.502 M-64.381,56.113c-0.06,0.008-0.149-0.022-0.289-0.131
								c-0.305-0.237-4.045-3.14-6.38-8.482c-0.25-0.572-0.271-0.339-0.034-0.984s0.882-1.765,1.052-2.036
								c0.17-0.271,0.144-0.376,0.381-0.206c0.848,0.712,1.527,1.433,1.798,1.637c0.295,0.222,0.521,0.559,0.544,0.937
								c0.044,0.746,1.519,7.406,2.979,8.865c0.004,0.004,0.007,0.007,0.011,0.011c-0.04,0.113-0.062,0.235-0.062,0.362
								C-64.383,56.095-64.381,56.104-64.381,56.113"/>
						</g>
						<g id="g3388" transform="translate(515.759,646.5099)">
							<path id="path3390" fill="#E32739" d="M-64.642,41.608c0.143-0.48,0.481-1.176,0.814-1.528
								c0.063,0.433,0.217,1.233,0.438,2.19c-0.142,0.221-0.486,0.765-0.609,1.066C-64.221,42.769-64.442,42.171-64.642,41.608"/>
						</g>
						<g id="g3392" transform="translate(517.09509,638.4393)">
							<path id="path3394" fill="#E32739" d="M-65.646,47.675c0.15,0.148,0.256,0.252,0.335,0.328
								c-0.314,0.332-0.645,0.869-0.801,1.295c-0.324-0.926-0.574-1.71-0.655-2.032c-0.014-0.055-0.069-0.088-0.123-0.074
								c-0.055,0.013-0.088,0.069-0.074,0.123c0.084,0.335,0.348,1.202,0.702,2.225c-0.39-0.257-1.24-0.548-1.572-0.655
								c-0.041-0.103-0.08-0.205-0.118-0.307c0.103-0.47,0.784-1.751,0.981-2.117C-66.61,46.724-66.059,47.267-65.646,47.675"/>
						</g>
						<g id="g3396" transform="translate(537.5912,680.7686)">
							<path id="path3398" fill="#E32739" d="M-81.055,15.853c-0.296,0-0.537-0.24-0.537-0.537c0-0.296,0.241-0.537,0.537-0.537
								c0.296,0,0.537,0.24,0.537,0.537C-80.518,15.613-80.759,15.853-81.055,15.853"/>
						</g>
						<g id="g3400" transform="translate(466.1642,623.57539)">
							<path id="path3402" fill="#E32739" d="M-27.359,58.849c-0.333,0.122-0.654,0.228-0.939,0.411
								c-0.075,0.048-0.176,0.254-0.391,0.117c-0.147-0.108-0.285-0.127-0.509-0.206c-0.215-0.075-0.059-0.314-0.059-0.421
								c0-0.274-0.018-0.826-0.079-1.125c-0.106-0.532,0.678-0.8,0.827-0.032c0.016,0.08,0.025,0.172,0.025,0.276
								c0,0.237-0.117,0.793-0.117,0.793c-0.02,0.079,0.054,0.092,0.108,0.069c0.202-0.088,0.468-0.506,0.806-0.652
								c0.04-0.017,0.079-0.031,0.121-0.04C-27.058,57.932-26.497,58.535-27.359,58.849"/>
						</g>
						<g id="g3404" transform="translate(546.25909,627.4594)">
							<path id="path3406" fill="#1C418C" d="M-87.571,55.929c-0.114,0.212-0.275,0.938-0.457,1.935l1.357-0.736
								c0.012-0.75-0.055-1.36-0.154-1.858L-87.571,55.929z M-87.296,53.783l-0.01-0.023c-0.281,0.362-0.53,0.752-0.754,1.163
								l0.434,0.783l0.751-0.661C-87.005,54.479-87.174,54.076-87.296,53.783 M-88.931,56.996l0.698,0.865
								c0.181-0.989,0.342-1.721,0.466-1.994l-0.405-0.728C-88.475,55.725-88.724,56.35-88.931,56.996 M-89.467,59.167l0.864,0.864
								c0.111-0.686,0.218-1.332,0.321-1.905l-0.722-0.896C-89.196,57.862-89.348,58.513-89.467,59.167 M-89.745,61.194l0.834,0.776
								c0.09-0.574,0.18-1.144,0.268-1.691l-0.868-0.868C-89.613,60.008-89.689,60.607-89.745,61.194 M-89.838,65.983
								c0.018,0.303,0.245,0.29,0.28,0.076c0.156-0.933,0.33-2.054,0.51-3.209c0.033-0.212,0.066-0.424,0.099-0.636l-0.818-0.762
								C-89.913,63.163-89.89,64.77-89.838,65.983 M-89.101,66.206c0.802-1.846,1.358-3.43,1.734-4.79l-1.371,0.769
								c-0.036,0.233-0.073,0.467-0.109,0.697c-0.18,1.155-0.354,2.275-0.51,3.211C-89.41,66.341-89.208,66.455-89.101,66.206
								 M-87.292,61.141c0.165-0.62,0.29-1.192,0.385-1.719l-1.535,0.885c-0.085,0.53-0.171,1.077-0.257,1.622L-87.292,61.141z
								 M-86.676,57.364l-1.398,0.757c-0.103,0.579-0.213,1.235-0.325,1.926l1.537-0.887
								C-86.753,58.491-86.696,57.894-86.676,57.364 M-86.961,60.676c-0.098,0.409-0.214,0.839-0.349,1.293
								c-0.3,1.011-0.697,2.137-1.21,3.391c-0.283,0.69-0.601,1.419-0.958,2.189c-0.079-0.018-0.161-0.028-0.245-0.028
								c-0.079,0-0.156,0.008-0.23,0.024c-0.003-0.054-0.007-0.11-0.011-0.17c-0.156-2.443-0.634-9.88,2.606-13.883l0.108-0.133
								c0,0.001,0.065,0.16,0.065,0.16l0.077,0.185C-86.738,54.589-85.947,56.475-86.961,60.676"/>
						</g>
					</g>
				</g>
			</g>
		</g>
		<g id="g3412" transform="matrix(3.9713672,0,0,3.9383213,-1710.9148,-2138.9472)">
			<g>
				<g>
					<g id="g3414">
						<g id="g3424" transform="translate(547.3116,651.79269)">
							<path id="path3426" fill="#0C0B0C" d="M-88.362,37.636c0.135-0.454,0.251-0.885,0.349-1.293
								c0.32-0.73,0.771-1.585,1.154-2.155c0.313-2.232-0.012-4.861-1.779-6.491c-0.102,0.679-0.543,1.392-0.848,1.969
								c-0.314,0.596-1.153,1.935-1.221,2.104c-0.034,0.814-0.408,2.783-0.543,4.31c-0.136,1.527-0.136,6.583-0.034,7.093
								l0.205,0.06c0.024-0.007,0.049-0.013,0.074-0.019c0.074-0.016,0.151-0.025,0.23-0.025c0.084,0,0.166,0.011,0.245,0.028
								c0.11,0.025,0.213,0.066,0.309,0.121c0.087,0.05,0.166,0.112,0.236,0.183c0.065,0.066,0.122,0.141,0.168,0.223
								c0.077,0.135,0.127,0.286,0.141,0.449l0.022,0.031c0.712-0.712,6.651-4.717,7.466-9.943c0.175-1.12-0.102-2.443,0.102-2.918
								C-82.751,31.335-85.59,31.016-88.362,37.636 M-92.562,25.228c-0.125-0.156-0.4-0.124-0.537,0.134
								c-3.622,5.939,0.103,16.594,1.388,18.345c0.056-0.09,0.125-0.17,0.204-0.241c-0.03-0.084-0.068-0.2-0.118-0.362
								c-0.272-0.883,0.012-8.63,0.509-11.402C-90.646,29.087-91.904,25.854-92.562,25.228 M-95.349,34.116
								c-0.271-0.204-0.949-0.924-1.798-1.637c-0.237-0.17-0.212-0.065-0.381,0.206c-0.17,0.271-0.814,1.392-1.052,2.036
								c-0.237,0.645-0.216,0.413,0.034,0.985c2.336,5.341,6.074,8.244,6.38,8.481c0.14,0.108,0.229,0.139,0.289,0.132
								c0-0.009-0.002-0.018-0.002-0.027c0-0.127,0.022-0.248,0.062-0.362c-0.003-0.003-0.007-0.007-0.01-0.011
								c-1.46-1.46-2.935-8.118-2.979-8.865C-94.828,34.677-95.054,34.338-95.349,34.116 M-95.485,27.767
								c-0.248-0.3-0.655-0.444-0.887-0.315c-0.025,0.013-0.052,0.029-0.079,0.045c-0.089-0.309-0.234-0.554-0.438-0.71
								c-0.242-0.185-0.54-0.217-0.819-0.088c-0.587,0.271-0.977,1.173-1.043,2.413c-0.096,1.793-0.42,2.218-1.203,3.242
								c-0.221,0.288-0.471,0.615-0.762,1.03c-1.385,1.973-1.276,3.497-0.611,7.346c0.466,2.697,0.065,3.459-0.442,4.424
								c-0.181,0.345-0.386,0.736-0.568,1.242c-0.281,0.785-0.233,1.338,0.139,1.642c0.49,0.402,1.315,0.135,1.719-0.108
								c0.072-0.043,0.149-0.092,0.231-0.144c0.688-0.438,1.727-1.099,2.832-0.242c0.493,0.381,0.909,0.512,1.273,0.398
								c0.616-0.194,0.88-1.001,1.136-1.814l0.014-0.044c0.11-0.352,0.309-0.632,0.591-0.773c0.431-0.214,0.966-0.034,1.185,0.09
								c0.098,0.055,0.222,0.022,0.278-0.076c0.055-0.098,0.022-0.191-0.076-0.247c-0.341-0.194-1.05-0.358-1.567-0.101
								c-0.385,0.191-0.653,0.523-0.798,0.984l-0.013,0.044c-0.224,0.712-0.455,1.449-0.869,1.578
								c-0.225,0.07-0.529-0.041-0.902-0.331c-1.332-1.032-2.563-0.247-3.3,0.221c-0.079,0.05-0.155,0.098-0.222,0.138
								c-0.386,0.232-0.981,0.332-1.251,0.111c-0.219-0.18-0.223-0.602-0.013-1.191c0.171-0.479,0.361-0.841,0.544-1.19
								c0.309-0.587,0.58-1.105,0.667-1.964c1.753,0.377,4.707,0.643,6.67,0.592c0.113,0.004,0.207-0.084,0.211-0.196
								c0.004-0.113-0.084-0.207-0.195-0.211v0.031c-2.235,0.066-4.9-0.182-6.662-0.595c0.021-0.596-0.036-1.34-0.209-2.34
								c-0.644-3.727-0.753-5.196,0.543-7.042c0.287-0.409,0.535-0.732,0.752-1.017c0.813-1.063,1.185-1.548,1.287-3.467
								c0.068-1.28,0.477-1.912,0.807-2.065c0.143-0.066,0.277-0.051,0.401,0.042c0.131,0.099,0.256,0.305,0.324,0.616
								c-0.462,0.327-0.961,0.821-0.986,1.455c-0.023,0.548,0.216,0.684,0.395,0.703c0.458,0.048,0.914-0.438,0.991-0.899
								c0.065-0.39,0.079-0.749,0.045-1.066c0.07-0.042,0.132-0.079,0.185-0.108c0.055-0.012,0.288,0.05,0.438,0.29
								c0.305,0.487,0.031,1.307-0.754,2.247c-0.322,0.386-0.683,0.751-1.032,1.103c-0.391,0.396-0.796,0.804-1.143,1.243
								c-0.638,0.805-1.512,1.909-1.265,4.692l0.137,1.584c0.095,1.126,0.103,1.218,0.208,1.638
								c0.116,0.464,0.338,1.029,0.737,1.086c0.383,0.055,0.638-0.411,0.722-0.554c0.218-0.372,0.396-0.519,0.456-0.538
								c0.022,0.026,0.086,0.132,0.116,0.486c0.087,1.046,0.257,1.511,0.588,1.605c0.324,0.093,0.61-0.232,0.796-0.482
								c0.08-0.108,0.274-0.37,0.381-0.461c0.07,0.13,0.163,0.481,0.261,0.85l0.05,0.188c0.029,0.108,0.141,0.204,0.25,0.175
								c0.108-0.029,0.173-0.141,0.144-0.25l-0.05-0.187c-0.218-0.816-0.299-1.121-0.573-1.173c-0.258-0.05-0.468,0.213-0.789,0.647
								c-0.25,0.337-0.357,0.333-0.357,0.333c-0.008-0.002-0.195-0.062-0.294-1.247c-0.027-0.331-0.102-0.779-0.429-0.853
								c-0.276-0.063-0.578,0.185-0.9,0.734c-0.158,0.271-0.271,0.333-0.313,0.326c-0.088-0.012-0.271-0.264-0.4-0.782
								c-0.097-0.388-0.103-0.454-0.197-1.573l-0.137-1.585c-0.233-2.621,0.55-3.609,1.178-4.404
								c0.333-0.42,0.712-0.803,1.114-1.209c0.355-0.358,0.722-0.729,1.055-1.129C-94.802,28.951-95.234,28.069-95.485,27.767
								 M-104.489,23.21c-0.624-0.175-0.748,0.376-0.94,0.881c-0.143,0.379-0.484,0.803-0.669,1.356
								c-0.213,0.64-0.332,1.566-0.332,1.566c0.786,0.19,2.086,0.562,2.835,1.076c0.535,0.395,0.865,0.976,1.009,1.612
								c-0.456-0.607-0.979-1.242-1.772-1.58c-1.558-0.57-3.278-0.941-5.461-0.803c-0.618,0.039-2.143,0.58-1.481,2.046
								c0.199,0.44,0.126,1.146-0.027,1.35c-0.153,0.204-0.43,0.665,0.027,1.124c0.662-0.102,2.148,0.05,2.453,0.204
								c0.305,0.152,0.634-0.154,0.611-0.357c-0.05-0.458,0.509-0.56,0.407,0.102c-0.031,0.201-0.153,0.56-0.305,0.611
								c-0.153,0.05-0.306,0.254-0.255,0.509c0.05,0.254-0.305,0.559-0.916,0.458c-0.611-0.102-0.407-0.509,0-0.458
								c0.407,0.05,0.458-0.255,0.051-0.357c-0.407-0.102-1.461-0.312-1.914-0.189c-0.56,0.153-0.402,0.952-0.148,1.767
								c0.096,0.307-0.038,0.379,0.53,0.428c0.962,0.081,2.515,0.52,2.985-0.661c0.199-0.501,0.646-0.561,0.333,0.261
								c-0.179,0.468-0.885,0.889-1.038,0.939c0.131,0.601-0.327,1.395-1.278,1.514c-1.035,0.131-0.855-0.944-0.345-1.101
								c0.733-0.226,0.676,0.341,0.257,0.252c-0.487,0.113-0.367,0.524-0.035,0.544c0.376,0.022,0.698-0.193,0.952-0.562
								c0.255-0.369-0.073-0.674-0.386-0.699c-0.947-0.079-2.004-0.274-2.563-0.274c-0.56,0-1.517,0.392-0.499,1.97
								c1.018,1.578,1.11,1.817,1.364,2.174c0.255,0.356,0.661,0.977,0.559,1.639c-0.102,0.662-0.509,1.129,0.814,2.3
								c1.324,1.171,3.665,3.075,4.632,3.532c0.814-0.611,3.161-1.313,2.448-6.505c-0.19-1.384-1.12-4.345,1.323-8.162
								c0.465,0.33,2.021-0.228,1.069-2.528c0.305-0.662,1.512-3.299,1.614-3.451C-99.75,25.027-101.958,23.918-104.489,23.21
								 M-89.936,44.292c0-0.463-0.376-0.839-0.839-0.839s-0.839,0.376-0.839,0.839c0,0.463,0.376,0.839,0.839,0.839
								S-89.936,44.756-89.936,44.292 M-90.164,46.761v-1.224h-0.64l-1.129,1.224C-91.933,46.761-90.164,46.761-90.164,46.761z
								 M-88.523,45.99l0.362-1.283l-1.189-0.278l-0.261,0.741C-89.35,45.518-88.915,45.825-88.523,45.99 M-81.893,32.237
								c0.646,5.818-4.984,9.961-7.11,11.805l1.384,0.308l-0.712,2.352c0,0-0.916-0.611-1.374-0.916v1.425h-2.698
								c0,0-0.967,0.866-2.647,2.138c-1.681,1.273-4.658,0.549-5.284,0.522c-0.366-0.026-1.105,0.206-2.48,0.104
								c-2.34-0.173-2.809-2.112-2.401-3.028c-1.578-1.069-6.202-4.415-5.948-5.536c0.17-0.75,0.282-1.379-0.126-1.836
								c-0.151-0.17-0.357-0.814-1.578-2.597c-1.455-2.122,0.289-2.786,0.99-2.776c0,0,0.03-0.204-0.023-0.329
								c-0.17-0.4-0.255-1.476-0.051-1.73c0.046-0.058,0.079-0.089,0.101-0.104c-0.014-0.006-0.031-0.021-0.05-0.049
								c-0.102-0.152-0.483-0.525-0.051-1.171c0.514-0.769-0.004-1.148-0.055-1.605c-0.385-3.464,4.144-2.208,5.008-2.309
								c0.046-0.395,0.149-1.052,0.379-1.672c0.275-0.74,0.665-1.092,0.78-1.587c0.139-0.599,0.453-1.218,1.066-1.073
								c2.392,0.565,5.396,1.935,6.821,2.851c0.509-0.255,2.494-0.458,3.513-0.357c1.018,0.102,1.258-0.492,1.782-0.407
								c0.176,0.117,0.286,0.414,0.435,0.596c1.119,1.361,1.609,4.575,1.458,6.083c0.593-1.13,1.84-2.918,1.945-4.028
								c1.988,0.852,2.694,4.775,2.249,6.452c1.681-2.337,3.21-2.818,4.838-2.66C-81.759,31.166-81.933,31.884-81.893,32.237"/>
						</g>
					</g>
				</g>
			</g>
		</g>
		<g id="g3428" transform="matrix(3.9713672,0,0,3.9383213,-1710.9148,-2138.9472)">
			<g>
				<g>
					<g id="g3430">
						<g id="g3436" transform="translate(511.16541,618.9659)">
							<path id="path3438" fill="#0C0B0C" d="M-61.189,62.315c-0.018-0.022-0.064-0.094-0.055-0.288
								c0.017-0.4,0.318-0.746,0.633-1.001c0.005,0.209-0.01,0.447-0.055,0.716C-60.795,62.118-60.965,62.387-61.189,62.315"/>
						</g>
						<g id="g3440" transform="translate(486.7356,632.2623)">
							<path id="path3442" fill="#0C0B0C" d="M-42.824,52.318c-0.486,0.532-1.222,2.07,0.237,3.393
								C-43.701,56.01-45.233,53.031-42.824,52.318"/>
						</g>
						<g id="g3444" transform="translate(476.15421,677.3123)">
							<path id="path3446" fill="#0C0B0C" d="M-34.869,18.451c0,0,0.47-0.339,0.828-0.798c0.291-0.374,0.444-0.103,0.242,0.224
								c-0.209,0.339-0.749,0.723-1.123,1.096l0.314,0.209c0,0,1.488-1.23,2.114-2.036c0.183-0.235,0.444-0.078,0.314,0.131
								c-0.453,0.725-1.605,1.7-2.114,2.141l0.314,0.209c0,0,0.653-0.366,1.123-0.992c0.255-0.34,0.548-0.079,0.209,0.261
								c-0.187,0.188-0.731,0.705-1.031,0.914c-0.257,0.179-0.237,0.305-0.611,0.068c0,0-0.305-0.237-0.848-0.611
								C-35.682,18.892-35.208,18.723-34.869,18.451"/>
						</g>
						<g id="g3448" transform="translate(472.6335,660.42329)">
							<path id="path3450" fill="#0C0B0C" d="M-32.222,31.148c0.271-0.136,0.271-0.102-0.034-0.204
								c-0.305-0.102-1.318-0.21-1.318-0.21c0.034,0.136,0.034,0.38,0,0.482c-0.034,0.102,0.034,0.402,0.034,0.402
								S-32.493,31.283-32.222,31.148 M-33.902,32.493c-0.158,0.069-0.635,0.291-0.58,0.37c0.067,0.094,0.449,0.213,0.772,0.266
								c0.322,0.054,0.121-0.228,0.052-0.386C-33.727,32.585-33.743,32.424-33.902,32.493 M-30.65,32.885
								c-0.586-0.081-1.338,0.402-1.873,0.829c-0.458,0.365-1.345,0.51-1.993,0.242c-0.65-0.268-0.343-0.694-0.093-0.894
								c0,0,0.089-0.18-0.303-0.471c-0.458-0.34,0.113-0.452,0.621-0.628c-0.202-0.314-0.093-0.894-0.038-1.216
								c-0.668-0.03-1.004-0.113-0.938-0.259c0.054-0.117,0.596-0.2,0.891-0.141c0.026-0.161-0.154-0.771,0.107-0.723
								c0.269,0.05,0.492,0.369,0.568,0.751c0,0,1.047,0.163,1.738,0.33c0.605,0.146,0.636,0.376,0.308,0.535
								c-0.45,0.218-1.246,0.693-1.737,1.018c-0.235,0.155-0.048,0.36,0.057,0.645c0.105,0.285,0.769-0.064,0.989-0.199
								c0.22-0.135,1.201-0.628,1.861-0.362C-29.92,32.565-29.708,33.015-30.65,32.885"/>
						</g>
					</g>
				</g>
			</g>
		</g>
	</g>
</g>
</svg>
