<?xml version="1.0" encoding="UTF-8" standalone="no"?>
<!-- Generator: Adobe Illustrator 13.0.0, SVG Export Plug-In . SVG Version: 6.00 Build 14948)  -->

<svg
   xmlns:dc="http://purl.org/dc/elements/1.1/"
   xmlns:cc="http://creativecommons.org/ns#"
   xmlns:rdf="http://www.w3.org/1999/02/22-rdf-syntax-ns#"
   xmlns:svg="http://www.w3.org/2000/svg"
   xmlns="http://www.w3.org/2000/svg"
   xmlns:sodipodi="http://sodipodi.sourceforge.net/DTD/sodipodi-0.dtd"
   xmlns:inkscape="http://www.inkscape.org/namespaces/inkscape"
   version="1.1"
   x="0px"
   y="0px"
   width="80"
   height="80"
   viewBox="0 0 292.694 253.07"
   enable-background="new 0 0 307 264.701"
   xml:space="preserve"
   id="svg2"
   inkscape:version="0.48.2 r9819"
   sodipodi:docname="AJAX.svg"><metadata
   id="metadata77"><rdf:RDF><cc:Work
       rdf:about=""><dc:format>image/svg+xml</dc:format><dc:type
         rdf:resource="http://purl.org/dc/dcmitype/StillImage" /></cc:Work></rdf:RDF></metadata><defs
   id="defs75" /><sodipodi:namedview
   pagecolor="#ffffff"
   bordercolor="#666666"
   borderopacity="1"
   objecttolerance="10"
   gridtolerance="10"
   guidetolerance="10"
   inkscape:pageopacity="0"
   inkscape:pageshadow="2"
   inkscape:window-width="1280"
   inkscape:window-height="1004"
   id="namedview73"
   showgrid="false"
   fit-margin-top="0"
   fit-margin-left="0"
   fit-margin-right="0"
   fit-margin-bottom="0"
   inkscape:zoom="1.7831441"
   inkscape:cx="202.13572"
   inkscape:cy="90.028402"
   inkscape:window-x="-8"
   inkscape:window-y="-8"
   inkscape:window-maximized="1"
   inkscape:current-layer="svg2" />
<g
   id="Layer_9"
   transform="translate(-7.9510065,-6.912)">
</g>
<g
   id="Layer_8"
   transform="translate(-7.9510065,-6.912)">
	<g
   id="Silver_BG">
		<path
   d="M 153.594,6.912 140.616,34.07 C 121.309,35.844 93.337,43.007 68.338,56.242 35.766,73.484 7.951,101.587 7.951,135.354 c 0,48.202 46.206,61.516 50.952,64.064 l -21.25,52.409 56.101,-44.397 c 30.263,4.315 69.092,2.152 89.067,-1.373 l 61.378,53.925 -20.946,-63.058 c 0,0 15.169,-5.127 20.467,-8.08 L 300.645,57.791 c -46.414,27.132 -88.18,43.155 -88.18,43.155 l 80.916,-60.192 -51.104,8.698 c 0,0 -28.639,-18.792 -80.018,-17.245 L 153.594,6.912 z"
   id="path7"
   style="fill:#a7b1b7;stroke:none"
   inkscape:connector-curvature="0" />
	</g>
	<g
   id="Blue_BG">
		<path
   d="m 290.123,69.647 c -42.354,23.607 -71.49,35.584 -101.492,46.52 l -1.765,-5.248 91.532,-63.571 -101.652,26.025 56.778,-22.93 c 0,0 -27.362,-15.619 -74.883,-13.248 L 152.798,19.854 121.133,85.583 73.083,99.2 117.542,80.97 138.058,39.117 c -5.708,0.888 -11.788,1.919 -17.993,3.345 -60.504,13.906 -107.267,52.247 -107.267,92.552 0,42.681 37.634,56.221 52.736,61.428 l -19.849,43.604 46.607,-37.835 c 32.046,4.806 70.902,3.043 92.185,-1.282 l 51.651,45.945 -19.348,-53.245 c 0,0 11.44,-2.901 23.163,-8.402 l 50.18,-115.58 z M 95.689,131.165 c -15.485,-2.061 -20.221,-7.411 -20.221,-11.712 0,-1.603 0.761,-3.445 0.761,-3.445 l 23.393,6.529 -3.933,8.628 z"
   id="path10"
   inkscape:connector-curvature="0"
   style="fill:#00285d" />
	</g>
	<g
   id="Red">
		<path
   id="Banner"
   d="m 239.464,101.733 c -52.796,27.413 -98.943,38.255 -128.532,38.255 -39.15,0 -56.695,-18.667 -56.695,-30.417 0,-28.007 41.82,-49.895 78.012,-58.604 l 2.977,-6.074 c -30.299,5.548 -64.503,18.136 -84.06,36.023 -19.067,12.818 -31.047,31.958 -31.047,54.007 0,32.447 26.909,62.854 110.148,62.854 53.035,0 89.729,-11.27 102.173,-17.518 -52.182,-0.32 -105.537,-15.863 -105.537,-15.863 0,0 67.937,-26.117 112.561,-62.663 z"
   inkscape:connector-curvature="0"
   style="fill:#e13a3e" />
		<path
   id="Banner_Tip"
   d="m 161.972,46.878 c 0.006,0 0.013,-10e-4 0.02,-10e-4 5.408,-0.445 10.862,-0.676 16.317,-0.676 23.1,0 38.482,3.732 38.482,3.732 0,0 -16.425,-8.219 -49.992,-8.219 -2.057,0 -4.188,0.054 -6.382,0.159 l 1.555,5.005 z"
   inkscape:connector-curvature="0"
   style="fill:#e13a3e" />
	</g>
	<g
   id="White">
		<path
   id="Low_Stripe"
   d="m 162.328,172.642 0,0 c 0,0 -18.803,2.97 -41.876,2.97 -91.001,0 -97.314,-45.818 -97.314,-59.403 -1.959,5.89 -3.006,12.119 -3.018,18.6 0.056,0.952 3.559,53.142 104.138,53.142 41.313,0 75.761,-9.61 75.761,-9.61 0,0 0,0 0,0 -13.69,-1.457 -26.619,-3.563 -37.691,-5.699 z"
   inkscape:connector-curvature="0"
   style="fill:#ffffff" />
		<path
   id="Top_Stripe"
   d="m 199.771,128.889 c -0.226,0.089 -55.403,21.889 -93.646,21.889 -43.996,0 -64.012,-25.098 -64.012,-44.812 0,-13.673 9.053,-25.049 9.053,-25.049 -0.293,0.198 -0.586,0.397 -0.876,0.597 -0.125,0.094 -16.001,12.137 -16.001,31.079 0,30.829 30.383,47.746 65.774,47.746 20.082,0 40.298,-3.525 52.166,-6.809 13.273,-6.097 30.321,-14.516 47.542,-24.641 z"
   inkscape:connector-curvature="0"
   style="fill:#ffffff" />
	</g>
	<g
   id="Star">
		<g
   id="Grey">
			<path
   d="m 200.941,208.188 0,0 17.21,13.531 -8.755,-23.23 c -8.624,2.168 -8.455,9.699 -8.455,9.699 z"
   id="path20"
   inkscape:connector-curvature="0"
   style="fill:#a7b1b7" />
			<path
   d="m 105.661,131.951 c 1.534,0.051 3.137,0.079 4.816,0.079 25.108,0 54.498,-8.195 69.043,-12.805 l -4.323,-11.47 63.385,-41.58 -74.447,18.066 -13.098,-41.059 -20.811,49.621 -56.601,14.291 39.657,9.634 -7.621,15.223 z"
   id="path22"
   inkscape:connector-curvature="0"
   style="fill:#a7b1b7" />
			<path
   d="m 72.137,198.921 0,0 -9.407,18.792 17.547,-13.164 c 0,-0.002 -1.726,-5.664 -8.14,-5.628 z"
   id="path24"
   inkscape:connector-curvature="0"
   style="fill:#a7b1b7" />
		</g>
		<g
   id="White_1_">
			<polygon
   points="151.016,50.187 161.23,85.083 140.278,98.62 "
   id="polygon27"
   style="fill:#ffffff" />
			<polygon
   points="85.135,106.22 131.281,93.682 140.278,98.62 "
   id="polygon29"
   style="fill:#ffffff" />
			<g
   id="g31">
				<path
   d="m 73.564,199.017 -7.069,13.849 8.695,-13.465 c -0.495,-0.172 -1.037,-0.303 -1.626,-0.384 z"
   id="path33"
   inkscape:connector-curvature="0"
   style="fill:#ffffff" />
				<path
   d="m 110.478,132.03 c 2.759,0 5.569,-0.1 8.405,-0.282 l 21.395,-33.129 -24.863,18.409 -7.645,14.977 c 0.881,0.016 1.783,0.025 2.708,0.025 z"
   id="path35"
   inkscape:connector-curvature="0"
   style="fill:#ffffff" />
			</g>
			<g
   id="g37">
				<path
   d="m 212.985,214.629 -8.577,-13.685 c -1.66,1.414 -2.525,3.083 -2.977,4.463 l 11.554,9.222 z"
   id="path39"
   inkscape:connector-curvature="0"
   style="fill:#ffffff" />
				<path
   d="M 157.12,125.493 140.278,98.62 v 30.44 c 5.852,-1.045 11.543,-2.28 16.842,-3.567 z"
   id="path41"
   inkscape:connector-curvature="0"
   style="fill:#ffffff" />
			</g>
			<polygon
   points="140.278,98.62 173.528,105.673 227.085,72.344 "
   id="polygon43"
   style="fill:#ffffff" />
		</g>
	</g>
	<g
   id="Stars">
		<polygon
   points="156.274,157.507 154.303,159.889 151.176,160.281 153.239,161.27 151.32,163.814 154.608,162.123 156.844,163.776 156.471,161.132 159.387,159.429 156.357,159.735 "
   id="polygon46"
   style="fill:#ffffff" />
		<polygon
   points="173.168,161.192 171.405,163.274 168.421,163.595 170.283,164.677 168.421,166.96 171.433,165.487 173.569,167.08 173.295,164.498 176.132,162.975 173.181,163.1 "
   id="polygon48"
   style="fill:#ffffff" />
		<polygon
   points="179.565,146.332 177.508,148.947 174.409,149.255 176.404,150.405 174.477,152.9 177.774,151.164 180.085,152.887 179.67,150.096 182.635,148.427 179.617,148.681 "
   id="polygon50"
   style="fill:#ffffff" />
		<polygon
   points="196.525,148.284 194.616,150.71 191.744,150.995 193.594,152.062 191.805,154.375 194.863,152.766 197.006,154.363 196.623,151.775 199.372,150.227 196.573,150.462 "
   id="polygon52"
   style="fill:#ffffff" />
		<polygon
   points="189.892,163.615 187.994,165.771 185.266,165.919 186.907,167.054 185.093,169.324 188.15,167.721 190.313,169.364 189.911,166.88 192.635,165.337 189.951,165.524 "
   id="polygon54"
   style="fill:#ffffff" />
		<polygon
   points="211.155,165.278 208.902,167.864 205.681,168.188 207.711,169.337 205.655,171.874 209.126,170.085 211.53,171.928 211.155,169.097 214.387,167.388 211.103,167.521 "
   id="polygon56"
   style="fill:#ffffff" />
		<polygon
   points="203.591,131.65 201.47,134.414 197.764,134.854 200.027,136.056 197.783,139.02 201.628,136.917 204.313,138.9 203.813,135.755 207.317,133.712 203.732,134.113 "
   id="polygon58"
   style="fill:#ffffff" />
		<polygon
   points="234.537,164.437 231.572,167.842 227.085,168.322 229.929,169.725 227.146,173.33 231.8,170.84 235.036,173.39 234.495,169.504 238.922,167.181 234.495,167.38 "
   id="polygon60"
   style="fill:#ffffff" />
		<polygon
   points="242.908,143.78 240.318,147.092 236.205,147.546 238.77,148.908 236.152,152.272 240.532,149.922 243.482,152.046 242.877,148.634 247.128,146.237 242.868,146.725 "
   id="polygon62"
   style="fill:#ffffff" />
		<polygon
   points="249.959,123.217 247.294,126.642 242.828,127.163 245.553,128.605 242.828,132.211 247.555,129.687 250.84,132.11 250.138,128.264 254.444,125.801 250.158,126.202 "
   id="polygon64"
   style="fill:#ffffff" />
		<polygon
   points="230.09,114.565 228.008,118.391 223.439,119.312 226.584,120.694 224.461,124.439 228.867,121.455 232.913,123.638 231.451,119.833 235.219,116.868 230.831,117.729 "
   id="polygon66"
   style="fill:#ffffff" />
		<polygon
   points="257.135,98.469 253.988,102.91 248.396,103.576 252.211,105.436 249.008,110.089 254.699,106.841 258.972,109.798 257.924,104.946 263.098,101.827 257.613,102.479 "
   id="polygon68"
   style="fill:#ffffff" />
	</g>
	<g
   id="Dot">
		<path
   id="White_2_"
   d="m 204.773,149.815 c 0,2.483 1.843,9.774 10.574,9.774 9.535,0 19.55,-9.213 19.55,-18.426 0,-5.688 -4.006,-10.254 -10.335,-10.254 -12.177,0 -19.789,11.696 -19.789,18.906 z"
   inkscape:connector-curvature="0"
   style="fill:#ffffff" />
		<path
   id="Red_1_"
   d="m 207.657,148.587 c 0,4.272 2.777,8.332 8.065,8.332 8.386,0 16.156,-7.909 16.156,-15.568 0,-4.033 -3.127,-8.105 -8.198,-8.105 -9.012,-0.001 -16.023,9.347 -16.023,15.341 z"
   inkscape:connector-curvature="0"
   style="fill:#e13a3e" />
	</g>
</g>
</svg>