<?xml version="1.0" encoding="iso-8859-1"?>
<!-- Generator: Adobe Illustrator 13.0.0, SVG Export Plug-In . SVG Version: 6.00 Build 14948)  -->
<!DOCTYPE svg PUBLIC "-//W3C//DTD SVG 1.1//EN" "http://www.w3.org/Graphics/SVG/1.1/DTD/svg11.dtd">
<svg version="1.1" id="H_Stroke_White" xmlns="http://www.w3.org/2000/svg" xmlns:xlink="http://www.w3.org/1999/xlink" x="0px"
	 y="0px" width="80" height="80" viewBox="0 0 225 152.446" style="enable-background:new 0 0 225 152.446;"
	 xml:space="preserve">
<g>
	<path style="fill:#21386F;" d="M199.418,74.581l17.613-18.873l-8.388-39.003L170.899,5.382l-3.774,3.774
		c0,0-30.895-9.157-58.015-9.157C52.633,0,0,30.266,0,76.049c0,43.547,41.688,76.397,109.11,76.397
		c62.069,0,115.89-39.701,115.89-39.701L199.418,74.581z M77.376,94.239c0,0-21.546-7.863-21.546-17.771
		c0-12.424,21.546-18.033,21.546-18.033V94.239z M116.449,98.256c-4.333,0.643-10.065,0.369-10.065,0.369v-9.367h10.065V98.256z
		 M116.449,62.838h-10.065v-9.366c8.981-0.021,8.819,0.18,10.065,0.364V62.838z M144.688,92.405V59.902
		c22.018,6.5,34.18,18.034,34.18,18.034S162.092,87.792,144.688,92.405z"/>
	<g>
		<path style="fill:#FFFFFF;" d="M192.498,78.565c-18.705,12.518-36.521,20.32-55.988,23.984V50.235
			c36.877,6.954,51.165,25.185,51.165,25.185l20.969-21.809l-7.129-31.034l-28.519-7.968l-3.774,3.774
			c0,0-26.631-10.694-62.855-10.694c-57.718,0-98.372,33.341-98.372,68.57c0,38.373,40.235,68.289,97.446,68.289
			c60.846,0,108.865-33.689,108.865-33.689L192.498,78.565z M106.576,47.583c5.51,0,10.695,0.241,15.57,0.677v20.869h-21.599V47.682
			C102.489,47.619,104.492,47.583,106.576,47.583z M47.915,76.363c0-7.505,5.059-22.779,37.43-27.415v54.423
			C47.313,97.252,47.915,76.363,47.915,76.363z M100.547,104.866V82.864h21.599v21.617c-4.43,0.371-8.963,0.559-13.631,0.559
			C105.732,105.04,103.081,104.977,100.547,104.866z"/>
	</g>
	<path style="fill:#BE2F37;" d="M170.48,25.093l4.193-4.613l22.646,6.71l5.033,25.163l-15.518,15.518
		c0,0-25.163-26.002-81.465-26.002c-44.35,0-63.013,18.925-63.013,33.551c0,14.625,16.775,35.227,65.075,35.227
		c49.627,0,83.598-24.324,83.598-24.324l15.098,22.648c0,0-41.1,30.055-102.33,30.055c-48.439,0-90.028-24.184-90.028-63.397
		c0-35.647,42.428-62.226,92.439-62.226C148.253,13.403,170.48,25.093,170.48,25.093z"/>
</g>
</svg>
