<?xml version="1.0" encoding="utf-8"?>
<!-- Generator: Adobe Illustrator 14.0.0, SVG Export Plug-In . SVG Version: 6.00 Build 43363)  -->
<!DOCTYPE svg PUBLIC "-//W3C//DTD SVG 1.1//EN" "http://www.w3.org/Graphics/SVG/1.1/DTD/svg11.dtd">
<svg version="1.1" id="Layer_2" xmlns="http://www.w3.org/2000/svg" xmlns:xlink="http://www.w3.org/1999/xlink" x="0px" y="0px"
	 width="80" height="80" viewBox="0 0 212.204 250" enable-background="new 0 0 212.204 250" xml:space="preserve">
<g>
	<path d="M150.553,92.802l-23.499-32.189l-7.671,3.597c0,0-2.822-1.594-13.947-3.167l5.525-5.551V42.767h-3.938
		c2.504-3.346,2.914-8.49,2.914-12.861c0-4.37-0.092-14.385,12.746-22.887H72.13C42.426,17.023,40.836,61.64,43.473,91.819
		l7.318-2.839c0,0-4.859,10.942-2.561,16.849c-3.392,7.978-2.262,15.58,1.024,21.339l-3.688,5.189l0.819,23.422
		c0,0-0.463,0.648-0.888,1.229c-0.99,1.354-3.456,3.453-12.326,5.087c-9.815,1.809-12.051,3.831-13.042,7.956
		c-0.995,4.14-9.943,7.173-10.846,7.454c0,0-0.933,2.721-0.933,5.861c0,12.522,15.736,20.555,34.041,27.621
		c19.338,7.466,42.986,13.555,51.039,24.235c9.89,4.968,21.239,7.757,33.651,7.757c43.724,0,76.771-36.214,76.771-77.196
		C203.853,131.656,181.574,103.15,150.553,92.802z"/>
	<path fill="#E4173E" d="M48.753,81.439c0,0-3.79-55.181,23.069-66.379l3.881,24.816l0.819-26.13l33.142,0.045
		c-3.624,2.3-4.849,5.109-5.554,8.24c-1.491,6.613-0.296,15.205-3.027,19.849l-25.266-0.023L48.753,81.439z"/>
	<path fill="#E4173E" d="M23.989,177.039l2.321,4.348l-2.083,2.186l33.835,15.501c-22.967-14.659-32.891-20.577-32.891-26.632
		c0-5.702,13.532-3.688,21.077-9.082c2.003,12.041-15.159,12.405-15.159,12.405l28.225,15.569
		c13.703,13.134,29.545,17.367,29.545,17.367c3.414,3.961,4.097,7.512,4.097,7.512s-16.935-10.448-25.539-11.609
		c0,0,5.376,2.63,11.677,6.01c10.13,5.434,22.879,13.521,21.237,21.101C86,211.423,15.248,205.071,15.248,184.392
		C15.248,178.814,22.941,178.814,23.989,177.039z"/>
	<path fill="#E4173E" d="M125.37,228.436c3.983-12.243,12.672-19.089,23.536-27.063c9.941-7.298,19.098-14.167,19.098-27.77
		c-0.41-1.435-11.37-5.839-12.599-6.18c0,0,6.965,5.77,6.965,8.16c0,2.39-15.398,11.369-15.398,11.369s1.533-1.933,3.482-4.268
		c2.691-3.226,6.043-7.35,6.043-9.39c0-2.834-5.292-3.722-6.942-9.617c0,0-1.436,2.205-2.833,5.259
		c-1.475,3.22-2.914,7.346-2.914,9.332l2.686,18.733l-7.442-0.865C138.375,196.688,125.265,209.063,125.37,228.436z"/>
	<polygon fill="#D69F0F" points="136.068,190.879 138.799,183.777 140.347,191.516 	"/>
	<path fill="#D69F0F" d="M81.167,127.51l43.248-14.932l21.941,12.838l0.183,2.002c0,0-0.825-0.717-2.248-1.496
		c-2.288-1.254-6.082-2.806-10.18-2.806c-2.481,0.011-4.931,1.398-6.715,3.051c-2.129,1.971-3.403,4.188-3.403,4.188
		s-2.766-6.988-15.262-6.988C96.986,123.367,81.167,127.51,81.167,127.51z"/>
	<path fill="#D69F0F" d="M69.012,120.499l2.117,6.578l57.2-22.99l22.58,19.735l-0.526-8.749c-0.277,0.111-0.593,0.19-0.931,0.19
		c-2.412,0-7.01-3.05-7.01-3.05l0.864-0.728c0,0,3.142,1.092,4.416,1.092c0.673,0,1.678-0.279,2.478-0.542l-0.52-8.653
		l-24.753-34.583l-5.521,1.988c0,0-12.542-5.053-23.877-5.053c-18.794,0-40.539,18.346-40.539,37.466l12.018,0.819L99.922,79.3
		l-33.187,32.777c0,0-2.595-5.736-7.375-5.736c-2.066,0.052-6.999,3.428-6.999,11.335c0,6.874,3.266,10.607,3.266,10.607
		l-3.801,5.281c1.604,32.222,1.12,47.357-9.992,44.066l16.161,7.876c0,0-0.318-20.759-0.318-26.586
		c0-10.668,0.872-11.785,2.185-11.745c3.566,0,4.53,18.66,4.945,30.644c0.24,6.94,0.495,12.308,0.495,12.308
		s12.952,14.227,35.987,16.229c-19.974-14.084-17.699-31.136-16.207-42.655c0.686-5.298,1.416-10.823,2.731-16.89
		c-18.346-0.182-18.483-10.379-18.483-13.02s0.393-3.995,0.393-3.995c-0.802,0.558-4.535,3.472-9.292,2.061
		C69.034,129.058,69.012,120.499,69.012,120.499z M78.958,90.942L65.37,99.99l-7.545-0.239c0-1.754,0.854-16.833,21.441-26.495
		c-1.711,1.145-3.193,2.488-4.711,3.721c-3.723,3.025-9.321,8.467-9.321,11.301C65.233,91.762,69.774,93.06,78.958,90.942z
		 M141.201,96.838c0.171,0,4.609,3.87,4.609,9.458c0,1.502,0.865,2.777,0.865,2.777l-0.273,0.592c0,0-1.047-0.592-1.411-0.592
		s-0.865,0.456-2.049,0.456s-3.505-1.457-6.009-4.279c0,0,0.318-0.228,0.729-0.228c0.409,0,2.367,1.958,3.688,1.958
		s0.956-0.729,2.776-0.592c0,0-0.455-1.366-0.455-2.322c0-3.989-2.595-6.26-2.595-6.692
		C141.076,96.917,141.201,96.838,141.201,96.838z M132.426,96.846c0.133,0,2.14,2.222,3.312,2.222c0.668,0,0.943-0.307,1.639-0.307
		c0,0-0.063-0.263-0.051-0.598c0.066-1.088,0.38-1.546,0.409-2.373c0.037-1.037-1.134-3.967-1.166-4.063
		c-0.131-0.389,0.049-1.428,0.205-1.251c0.592,0.71,2.913,4.416,2.913,6.919c0,1.187-0.101,1.786-0.137,2.8s0.541,2.031,0.541,2.031
		l-0.196,0.529c0,0-0.811-1.126-2.177-1.126c-1.477,0-2.065-0.308-2.919-1.093s-2.766-3.338-2.76-3.482
		C132.04,96.957,132.13,96.846,132.426,96.846z M120.647,78.958c0,0-1.604,1.707-1.604,6.453c0,7.294,3.845,11.848,8.16,11.848
		c0.648,0,2.901-0.444,2.901-0.444s-1.16,2.971-4.745,2.971c-4.712,0-9.765-6.419-9.765-11.916
		C115.594,81.451,120.647,78.958,120.647,78.958z M103.006,97.589c0-0.879-0.057-1.056-0.057-1.81s0.624-2.406,1.001-3.164
		c0.488-0.979,3.409-4.065,4.166-4.598c0.199-0.131,0.331,0.831,0.153,1.149c-0.044,0.079-0.556,0.6-1.041,1.366
		c-0.598,0.943-1.187,2.225-1.187,3.124c0,0.717,0.401,0.999,0.435,1.946c0,0.29-0.159,0.563-0.159,0.563
		c0.927,0,1.329,0.706,2.481,0.706c2.97,0,4.905-1.798,5.463-1.798c0.159,0,0.523,0.085,0.523,0.319
		c0,0.125-1.366,1.178-3.187,2.219c-1.565,0.896-3.475,1.81-5.053,1.81c-2.014,0-1.81-0.387-2.572-0.387
		c-0.763,0-1.753,0.751-1.753,0.751l-0.541-0.094C101.681,99.691,103.006,98.468,103.006,97.589z M93.549,104.565
		c0.133-0.302,0.277-2.165,0.615-3.46c0.268-1.027,0.692-1.45,1.07-2.208c0.941-1.89,4.595-4.421,5.429-5.008
		c0.199-0.131,0.257,0.331,0.08,0.649c-0.122,0.219-2.014,1.723-3.073,3.813c-0.481,0.95-0.649,2.05-0.649,3.152
		c0,0.842-0.182,1.514-0.182,1.514c1.357,0,2.347,1.229,3.255,1.229c2.97,0,6.203-1.815,6.76-1.815c0.159,0,0.824,0.134,0.824,0.367
		s-6.014,3.917-9.428,3.917c-2.014,0-3.312-0.774-4.074-0.774s-1.252,0.479-1.252,0.479l-0.341-0.456
		C92.582,105.965,93.311,105.107,93.549,104.565z M83.09,108.509c0.324-0.495,1.105-3.523,2.23-5.07
		c0.456-0.626,3.105-2.496,3.278-2.618c0.193-0.137,0.546,0.216,0.319,0.5c-0.228,0.285-0.945,0.763-1.514,1.958
		c-0.569,1.195-0.626,2.549-0.865,3.107c-0.239,0.558-0.614,1.013-0.614,1.013c2.549,0,1.806,2.492,6.829,2.492
		c0.956,0,5.77-0.751,5.77-0.751l1.502,0.99c0,0-4.951,2.288-9.56,2.288c-4.165,0-5.531-2.151-7.853-2.117
		c-0.307,0-1.639,0.273-1.639,0.273l-0.205-0.239C80.768,110.335,82.766,109.004,83.09,108.509z M70.742,114.103
		c0,0,1.155-0.305,1.434-1.729c0.706-3.608,2.754-3.71,3.881-4.769c0.245-0.211,0.412,0.109,0.273,0.256
		c-0.324,0.341-0.546,1.007-0.546,1.246c0,0.239,0.188,0.973,0.188,1.332c0,0.99-1.11,1.878-1.11,1.878
		c2.62,0,2.022,1.878,5.873,1.878c0.922,0,1.229-0.137,1.673-0.137s1.537,0.239,2.697,1.417c-2.697,0.341-3.636,1.246-6.589,1.246
		c-4.882,0-5.019-2.134-7.238-2.134c-0.222,0-0.26,0.141-0.474,0.141s-0.38-0.077-0.38-0.312
		C70.423,114.181,70.742,114.103,70.742,114.103z M60.226,129.649c-3.665,0-5.372-5.6-5.372-5.6s1.662,2.648,3.884,2.648
		c1.596,0,5.95-3.635,5.95-9.386c0-3.574-0.82-5.099-0.82-5.099s3.187,3.873,3.187,7.307
		C67.054,125.942,62.441,129.649,60.226,129.649z"/>
	<path fill="#D69F0F" d="M57.221,77.797l1.116,5.076c2.162-3.483,15.364-21.556,40.698-21.43l3.63-3.796L83.67,57.642L67.475,70.627
		l14.312-16.792l23.188-0.003v-6.695H79.727L57.221,77.797z"/>
	<path fill="#D69F0F" d="M158.003,103.129l-0.034,24.744c11.164,9.189,18.023,22.677,18.023,37.996
		c0,21.209-12.873,38.798-32.454,46.388c-4.182,6.94-7.744,16.579-4.603,22.902c34.28-7.13,57.952-34.812,57.952-69.273
		C196.888,138.387,181.494,115.077,158.003,103.129z M188.022,147.337c0,0,0.36,0.938,0.506,2.357
		c0.163,1.582,0.369,3.413-0.67,5.325c-0.239,0.44-0.743,0.85-1.004,1.329c-0.794,1.46-0.562,2.552-0.562,2.552
		s-0.431-1.316-1.048-1.755c-0.616-0.438-0.916-0.382-2.5-1.709c-2.005-1.68-2.811-6.482-2.811-6.482
		c1.646,0.117,2.876,3.001,4.834,2.725C186.366,151.453,186.472,147.864,188.022,147.337z M184.122,137.526
		c0,0,0.507,0.869,0.879,2.245c0.415,1.536,0.913,3.31,0.194,5.364c-0.165,0.473-0.597,0.958-0.777,1.474
		c-0.549,1.568-0.144,2.608-0.144,2.608s-0.637-1.23-1.316-1.564c-0.679-0.333-0.966-0.229-2.742-1.284
		c-2.249-1.336-3.816-5.947-3.816-5.947c1.644-0.148,3.322,2.501,5.209,1.913C183.149,141.855,182.677,138.296,184.122,137.526z
		 M158.58,115.127c0,0,9.674,3.505,9.674,6.237c0,1.047-0.638,1.593-1.548,1.593C163.61,122.957,158.58,115.127,158.58,115.127z
		 M165.357,125.683c1.502-0.683,3.961,1.264,5.548,0.085c1.297-0.961-0.324-4.166,0.785-5.369c0,0,0.766,0.653,1.571,1.829
		c0.898,1.313,1.954,2.823,1.954,4.999c0,0.501-0.247,1.102-0.247,1.647c0,1.662,0.726,2.51,0.726,2.51s-1.008-0.95-1.759-1.041
		c-0.751-0.092-0.987,0.102-3.013-0.308C168.358,129.518,165.357,125.683,165.357,125.683z M171.551,132.534
		c1.598-0.412,3.683,1.931,5.45,1.045c1.442-0.723,0.401-4.158,1.702-5.151c0,0,0.642,0.775,1.23,2.073
		c0.658,1.448,1.437,3.118,1.06,5.262c-0.087,0.493-0.434,1.042-0.528,1.58c-0.288,1.637,0.279,2.597,0.279,2.597
		s-0.827-1.109-1.551-1.33c-0.725-0.219-0.99-0.069-2.915-0.824C173.843,136.831,171.551,132.534,171.551,132.534z M150.49,222.181
		c-0.962,2.557-11.25,2.434-11.25,2.434s7.464-5.56,10.361-4.47C150.454,220.465,150.858,221.2,150.49,222.181z M158.583,217.853
		c-0.192,0.512-0.172,1.16-0.349,1.629c-0.766,2.038-2.285,3.079-3.589,3.991c-1.167,0.818-2.113,1.16-2.113,1.16
		c-0.615-1.517,2.029-3.945,1.154-5.302c-1.071-1.661-4.058-0.705-5.224-1.873c0,0,4.159-2.533,6.741-2.116
		c2.041,0.33,2.193,0.594,2.929,0.773c0.735,0.179,2.013-0.356,2.013-0.356S159.167,216.298,158.583,217.853z M167.945,210.987
		c-0.099,0.537,0.036,1.172-0.054,1.665c-0.393,2.141-1.703,3.435-2.824,4.564c-1.004,1.012-1.875,1.517-1.875,1.517
		c-0.874-1.385,1.297-4.243,0.195-5.423c-1.349-1.445-4.117,0.026-5.472-0.916c0,0,3.643-3.231,6.259-3.279
		c2.066-0.037,2.264,0.195,3.019,0.241c0.756,0.046,1.917-0.707,1.917-0.707S168.244,209.353,167.945,210.987z M175.33,204.673
		c0.015,2.177-1.031,3.693-1.921,5.012c-0.798,1.183-1.559,1.84-1.559,1.84c-1.118-1.196,0.481-4.41-0.821-5.363
		c-1.595-1.168-4.04,0.795-5.547,0.122c0,0,2.976-3.854,5.536-4.39c2.023-0.424,2.26-0.231,3.011-0.327
		c0.751-0.097,1.752-1.054,1.752-1.054s-0.72,0.854-0.709,2.515C175.075,203.573,175.327,204.172,175.33,204.673z M180.191,201.082
		c-0.602,1.293-1.249,2.063-1.249,2.063c-1.292-1.005-0.22-4.432-1.656-5.167c-1.76-0.901-3.865,1.422-5.459,0.995
		c0,0,2.331-4.275,4.775-5.208c1.931-0.736,2.195-0.585,2.922-0.798c0.726-0.213,1.563-1.316,1.563-1.316s-0.576,0.956-0.304,2.595
		c0.09,0.539,0.433,1.091,0.515,1.585C181.656,197.977,180.862,199.64,180.191,201.082z M185.418,191.219
		c-0.341,1.385-0.828,2.265-0.828,2.265c-1.462-0.737-1.068-4.306-2.619-4.752c-1.9-0.546-3.52,2.139-5.166,2.026
		c0,0,1.465-4.644,3.685-6.029c1.753-1.094,2.042-0.996,2.714-1.345c0.671-0.349,1.28-1.592,1.28-1.592s-0.382,1.049,0.202,2.604
		c0.191,0.512,0.634,0.986,0.81,1.456C186.259,187.891,185.799,189.675,185.418,191.219z M188.855,181.284
		c-0.119,1.421-0.462,2.366-0.462,2.366c-1.56-0.498-1.733-4.084-3.335-4.279c-1.963-0.24-3.139,2.667-4.782,2.815
		c0,0,0.715-4.817,2.688-6.535c1.56-1.356,1.86-1.305,2.468-1.755c0.608-0.451,1.015-1.774,1.015-1.774s-0.212,1.095,0.609,2.54
		c0.27,0.475,0.781,0.875,1.029,1.31C189.16,177.864,188.987,179.698,188.855,181.284z M186.44,169.642
		c-1.999,0-3.619-1.654-3.619-3.696c0-2.041,1.62-3.695,3.619-3.695s3.619,1.654,3.619,3.695
		C190.059,167.987,188.439,169.642,186.44,169.642z"/>
	<path fill="#FFFFFF" d="M140.655,134.782l3.96,1.775l-0.58-6.316c0,0-7.38-7.024-13.281-1.98c-1.878,1.604-7.648,8.866-7.648,8.866
		c-2.753-5.588-9.002-9.11-17.583-9.311c-4.101-0.095-8.979,0.604-14.75,1.97c-7.128,1.685-12.451,3.778-12.451,3.778
		s-1.138,1.297-1.138,3.323c0,6.327,10.539,6.373,12.223,6.373c1.684,0,4.302-0.114,4.302-0.114l-2.595,11.609l9.856,1.377
		c0,0-7.693,16.172-7.693,29.056c0,0.917,0.548,3.475,1.798,4.734c1.046,1.127,5.442,5.484,9.014,8.672
		c1.047,0.935,2.13,1.873,3.039,2.578c0.692,0.537,1.286,0.919,1.673,1.178c0.815,0.546,1.607,0.819,2.23,0.819
		c5.381,0,8.945-0.799,11.381-1.502c1.211-0.35,3.574-1.385,4.16-2.015c0.676-0.726,0.894-2.555,0.894-2.856
		c0-2.186-0.592-5.873-8.923-5.873s-11.757,3.096-11.757,3.096l1.844-6.009c0,0,0.457-0.754,2.117-1.332
		c1.406-0.489,3.673-0.819,7.307-0.819c3.141,0,8.706,0.648,8.706,0.648l-0.409-5.36l-3.347,0.615l-7.716-1.195l-16.685,0.479
		l-0.774-0.66l20.327-3.779l4.473,0.99l3.688-0.888l-1.98-1.912l-2.22,0.956l-0.409-4.541l-12.224-2.014l9.595-3.449l6.077,2.391
		l4.609-2.22l-5.054-19.734l1.946-6.009L140.655,134.782z M117.312,147.358l-8.08-1.093l4.279-3.392l-5.472-1.545
		c0,0-1.553,2.638-4.336,2.638c-3.705,0-4.806-4.098-4.806-4.098l-19.461-2.526l22.62-3.705l18.442,7.461L117.312,147.358z"/>
	<path fill="#FFFFFF" d="M135.909,177.461l-1.127-2.63l-3.414-3.892l4.473-3.722l-2.68-5.65l-3.057-9.851l1.844-6.658
		c0,0,1.195,1.912,3.073,1.912c2.834,0,3.722-4.131,3.722-4.131l3.79-0.763l-1.002,3.551c0,0,3.335,6.453,3.335,8.832l-4.04,6.714
		L135.909,177.461z"/>
	<polygon fill="#FFFFFF" points="115.91,221.121 118.769,211.262 109.243,209.931 105.112,213.618 	"/>
</g>
</svg>
